<svg id="Page-1" xmlns="http://www.w3.org/2000/svg" width="49" height="37.081" viewBox="0 0 49 37.081">
  <g id="Artboard-Copy">
    <path id="quote2" d="M460.5,43.38a7.446,7.446,0,0,0-1.718-2.821,8.45,8.45,0,0,0-3.327-2.077,15.975,15.975,0,0,0-5.32-.744h-2.955a16.064,16.064,0,0,1,3.888-9.29,29.066,29.066,0,0,1,9.3-6.721L457.966,18a36.231,36.231,0,0,0-13.4,9.772q-5.564,6.45-5.557,12.786,0,6.81,3.231,10.671t9.276,3.851a9.609,9.609,0,0,0,6.655-2.553A7.81,7.81,0,0,0,461,46.569a10.2,10.2,0,0,0-.5-3.189m-27.011,0a7.469,7.469,0,0,0-1.72-2.821,8.422,8.422,0,0,0-3.327-2.077,15.95,15.95,0,0,0-5.318-.744h-2.956a16.08,16.08,0,0,1,3.887-9.29,29.116,29.116,0,0,1,9.3-6.721L430.954,18a36.231,36.231,0,0,0-13.4,9.772q-5.564,6.45-5.556,12.786c0,4.54,1.069,8.1,3.23,10.671s5.251,3.851,9.276,3.851a9.615,9.615,0,0,0,6.656-2.553,7.808,7.808,0,0,0,2.826-5.959,10.313,10.313,0,0,0-.5-3.189" transform="translate(-412 -18.001)" fill="#d9dbe3" fill-rule="evenodd"/>
  </g>
</svg>
