<svg xmlns="http://www.w3.org/2000/svg" width="360" height="154" viewBox="0 0 360 154">
    <defs>
        <style>
            .cls-1,.cls-3,.cls-4,.cls-5{fill:#fff}.cls-1{stroke:#707070}.cls-2{clip-path:url(#clip-path)}.cls-3{opacity:0}.cls-4{opacity:.2}.cls-6{filter:url(#Path_4139)}
        </style>
        <clipPath id="clip-path">
            <path id="Rectangle_3880" d="M0 0h360v154H0z" class="cls-1" data-name="Rectangle 3880" transform="translate(0 200)"/>
        </clipPath>
        <filter id="Path_4139" width="432" height="187.072" x="-36" y="-13.072" filterUnits="userSpaceOnUse">
            <feOffset dy="-16"/>
            <feGaussianBlur result="blur" stdDeviation="12"/>
            <feFlood flood-opacity=".161"/>
            <feComposite in2="blur" operator="in"/>
            <feComposite in="SourceGraphic"/>
        </filter>
    </defs>
    <g id="bottom-web" class="cls-2" transform="translate(0 -200)">
        <path id="Path_4136" d="M-1720.911 41.945v23l360 .465v-154a1808.254 1808.254 0 0 1-165.312 81.1c-78.065 33.206-169.463 46.299-194.688 49.435z" class="cls-3" data-name="Path 4136" transform="translate(1720.911 288.591)"/>
        <path id="Path_4137" d="M-1720.911 84.4v23.049l360 .529V-33.554A1815.806 1815.806 0 0 1-1528.9 41.895c-75.207 29.031-161.753 39.553-192.011 42.505z" class="cls-4" data-name="Path 4137" transform="translate(1720.911 246.018)"/>
        <path id="Path_4138" d="M-1720.911 127.576v23.138l360 .264V22.031a1823.036 1823.036 0 0 1-170.458 69.718c-73.175 25.451-156.171 33.502-189.542 35.827z" class="cls-4" data-name="Path 4138" transform="translate(1720.911 203.022)"/>
        <g class="cls-6" transform="translate(0 200)">
            <path id="Path_4139-2" d="M-1530.77 145.975c-73.623 22.861-156.319 28.217-190.141 29.471v22.92h360V83.292c-19.689 8.469-89.348 37.683-169.859 62.683z" class="cls-5" data-name="Path 4139" transform="translate(1720.91 -44.37)"/>
        </g>
    </g>
</svg>
