<svg xmlns="http://www.w3.org/2000/svg" width="64" height="64" viewBox="0 0 64 64">
    <defs>
        <style>
            .cls-1,.cls-2{fill:#fff}.cls-1{stroke:#707070}.cls-3{clip-path:url(#clip-path)}.cls-4{fill:#171359}.cls-5{fill:#43a046}.cls-6{clip-path:url(#clip-path-2)}.cls-7{fill:#da042c}.cls-8{fill:#fb2832}
        </style>
        <clipPath id="clip-path">
            <path id="Rectangle_3929" d="M0 0h64v64H0z" class="cls-1" data-name="Rectangle 3929" transform="translate(775 286)"/>
        </clipPath>
        <clipPath id="clip-path-2">
            <path id="Rectangle_3751" d="M0 0h32v32H0z" class="cls-2" data-name="Rectangle 3751"/>
        </clipPath>
    </defs>
    <g id="no-saved-job" class="cls-3" transform="translate(-775 -286)">
        <g id="Group_13238" data-name="Group 13238" transform="translate(13403 17227.818)">
            <g id="Group_13239" data-name="Group 13239" transform="translate(-12621 -16933.15)">
                <path id="Path_4783" d="M1.589 0h46.2a1.609 1.609 0 0 1 1.589 1.629V53.7a1.609 1.609 0 0 1-1.589 1.629h-46.2A1.609 1.609 0 0 1 0 53.7V1.629A1.609 1.609 0 0 1 1.589 0z" class="cls-4" data-name="Path 4783"/>
                <path id="Path_4782" d="M1.537 0h41.906a1.557 1.557 0 0 1 1.537 1.576V49a1.557 1.557 0 0 1-1.537 1.576H1.537A1.557 1.557 0 0 1 0 49V1.576A1.557 1.557 0 0 1 1.537 0z" class="cls-5" data-name="Path 4782" transform="translate(2 2.332)"/>
                <g id="Mask_Group_6" class="cls-6" data-name="Mask Group 6" transform="translate(8 11.333)">
                    <path id="Path_2538" d="M24.794-81.956h-2.611v-7.958h2.611zm0 5.347h-2.611v-2.673h2.611zM23.489-96.5a13.163 13.163 0 0 0-9.389 3.851 13.163 13.163 0 0 0-3.855 9.388 13.163 13.163 0 0 0 3.855 9.388 13.163 13.163 0 0 0 9.388 3.855 13.163 13.163 0 0 0 9.388-3.855 13.163 13.163 0 0 0 3.855-9.388 13.163 13.163 0 0 0-3.855-9.388 13.163 13.163 0 0 0-9.387-3.851z" class="cls-2" data-name="Path 2538" transform="translate(-7.573 99.243)"/>
                </g>
            </g>
            <g id="Group_13240" data-name="Group 13240" transform="translate(-12607.118 -16941.818)">
                <path id="Path_4784" d="M.5 0h20.912c.275 0 .5.3.5.661v6.006c0 .365-.223.661-.5.661H.5c-.275 0-.5-.3-.5-.661V.661C0 .3.223 0 .5 0z" class="cls-4" data-name="Path 4784" transform="translate(0 7.153)"/>
                <path id="Path_4780" d="M642.482 118a4.489 4.489 0 1 0 4.162 4.477 4.328 4.328 0 0 0-4.162-4.477zm0 7.06a2.455 2.455 0 0 1-2.313-1.551 2.681 2.681 0 0 1 .5-2.835 2.374 2.374 0 0 1 2.686-.588 2.587 2.587 0 0 1 1.532 2.392 2.5 2.5 0 0 1-2.4 2.571z" class="cls-4" data-name="Path 4780" transform="translate(-631.379 -118)"/>
                <path id="Path_4781" d="M642.87 118a4.144 4.144 0 1 0 3.939 4.139A4.043 4.043 0 0 0 642.87 118zm0 6.528a2.394 2.394 0 1 0 0-.007z" class="cls-7" data-name="Path 4781" transform="translate(-631.989 -118)"/>
                <path id="Path_4785" d="M.5 0h20.21c.275 0 .5.3.5.661v5.683c0 .365-.223.661-.5.661H.5c-.275 0-.5-.3-.5-.661V.661C0 .3.223 0 .5 0z" class="cls-8" data-name="Path 4785" transform="translate(.171 6.839)"/>
            </g>
        </g>
    </g>
</svg>
