<?xml version="1.0" encoding="utf-8"?>
<!-- Generator: Adobe Illustrator 19.0.0, SVG Export Plug-In . SVG Version: 6.00 Build 0)  -->
<svg version="1.1" id="Layer_1" xmlns="http://www.w3.org/2000/svg" xmlns:xlink="http://www.w3.org/1999/xlink" x="0px" y="0px"
	 viewBox="0 0 326 287.2" style="enable-background:new 0 0 326 287.2;" xml:space="preserve">
<style type="text/css">
	.st0{opacity:0.4;}
	.st1{clip-path:url(#SVGID_2_);fill:url(#SVGID_3_);}
	.st2{clip-path:url(#SVGID_5_);fill:url(#SVGID_6_);}
</style>
<g class="st0">
	<defs>
		<path id="SVGID_1_" class="st0" d="M239.7,0c-9,0-18.2,4.6-23.7,11.9c-6.9,9.2-9.7,20.9-15.4,30.8c-14.5,25.2-45.3,35.6-73.9,40.7
			c-28.6,5.1-59.1,7.5-83,24c-2.7,1.8-5.3,3.8-7.8,5.9c-24.1,20.1-36,48.5-36,76.6v0.3c0.1,32.7,16.1,65,47.7,83.5
			c0.7,0.4,1.4,0.8,2.1,1.2c14.9,8.3,31.1,12.2,47.2,12.2h0.2c30.6,0,60.6-14.3,80-40.2c13.7-18.2,27.3-36.5,44.8-43.5
			c23.8-9.5,52.4-3.4,75-15.5c17.7-9.6,28.6-29.8,29.1-49.9c0-0.5,0-1,0-1.6v-0.2c0-19.6-8.9-38.6-22.2-52.9
			c-12.5-13.4-29.7-24.3-34.6-42C264.8,26,267.6,11.9,251.6,3c-3.6-2-7.7-3-11.7-3H239.7z"/>
	</defs>
	<clipPath id="SVGID_2_">
		<use xlink:href="#SVGID_1_"  style="overflow:visible;"/>
	</clipPath>
	
		<linearGradient id="SVGID_3_" gradientUnits="userSpaceOnUse" x1="0" y1="287.1873" x2="1" y2="287.1873" gradientTransform="matrix(-20.9687 -339.4036 -339.4036 20.9687 97646.3359 -5701.9019)">
		<stop  offset="0" style="stop-color:#3C00FF"/>
		<stop  offset="7.586692e-002" style="stop-color:#4700F0"/>
		<stop  offset="0.2208" style="stop-color:#6400CA"/>
		<stop  offset="0.4197" style="stop-color:#94008C"/>
		<stop  offset="0.6622" style="stop-color:#D40038"/>
		<stop  offset="0.8145" style="stop-color:#FF0000"/>
		<stop  offset="1" style="stop-color:#E13D5A"/>
	</linearGradient>
	<polygon class="st1" points="-40,373.3 -66.7,-59.4 366,-86.2 392.7,346.6 	"/>
</g>
<g>
	<defs>
		<rect id="SVGID_4_" x="267.1" y="47.3" width="45.3" height="6.1"/>
	</defs>
	<clipPath id="SVGID_5_">
		<use xlink:href="#SVGID_4_"  style="overflow:visible;"/>
	</clipPath>
	
		<linearGradient id="SVGID_6_" gradientUnits="userSpaceOnUse" x1="120.7307" y1="148.052" x2="121.2706" y2="148.052" gradientTransform="matrix(-83.9176 0 0 83.9176 10443.8652 -12373.877)">
		<stop  offset="0" style="stop-color:#FFDF00"/>
		<stop  offset="0.1044" style="stop-color:#FBD512"/>
		<stop  offset="0.3131" style="stop-color:#F1BA40"/>
		<stop  offset="0.607" style="stop-color:#E18E8A"/>
		<stop  offset="0.9717" style="stop-color:#CC53EF"/>
		<stop  offset="1" style="stop-color:#CA4EF7"/>
	</linearGradient>
	<polygon class="st2" points="312,53 304.7,48.2 297.2,53.1 289.8,48.2 282.3,53.1 274.9,48.2 267.5,53 267.2,52.5 274.9,47.5 
		282.3,52.4 289.8,47.5 297.2,52.4 304.7,47.5 312.3,52.5 312,53 	"/>
</g>
</svg>
