<?xml version="1.0" encoding="utf-8"?>
<!-- Generator: Adobe Illustrator 19.0.0, SVG Export Plug-In . SVG Version: 6.00 Build 0)  -->
<svg version="1.1" id="Layer_1" xmlns="http://www.w3.org/2000/svg" xmlns:xlink="http://www.w3.org/1999/xlink" x="0px" y="0px"
	 viewBox="0 0 1073.3 932.7" style="enable-background:new 0 0 1073.3 932.7;" xml:space="preserve">
<style type="text/css">
	.st0{fill:#E9E9E9;stroke:#DBDBDB;stroke-width:200;stroke-miterlimit:10;}
	.st1{opacity:0.2;fill-rule:evenodd;clip-rule:evenodd;fill:#7088E3;}
	.st2{fill-rule:evenodd;clip-rule:evenodd;fill:#EEF5FF;}
	.st3{fill-rule:evenodd;clip-rule:evenodd;fill:#CCCCCC;}
	.st4{fill-rule:evenodd;clip-rule:evenodd;fill:#EF4136;}
	.st5{fill-rule:evenodd;clip-rule:evenodd;fill:#FCD8D6;}
	.st6{fill-rule:evenodd;clip-rule:evenodd;fill:#F9B3AF;}
	.st7{fill-rule:evenodd;clip-rule:evenodd;fill:#F48C85;}
	.st8{fill-rule:evenodd;clip-rule:evenodd;fill:#F2675D;}
	.st9{fill-rule:evenodd;clip-rule:evenodd;fill:#F6931D;}
	.st10{fill-rule:evenodd;clip-rule:evenodd;fill:#F79D31;}
	.st11{fill-rule:evenodd;clip-rule:evenodd;fill:#FBC98F;}
	.st12{fill-rule:evenodd;clip-rule:evenodd;fill:#F9B462;}
	.st13{fill-rule:evenodd;clip-rule:evenodd;fill:#F69929;}
	.st14{fill-rule:evenodd;clip-rule:evenodd;fill:#FFAE00;}
	.st15{fill-rule:evenodd;clip-rule:evenodd;fill:#F7837B;}
	.st16{fill-rule:evenodd;clip-rule:evenodd;fill:#FFCDA1;}
	.st17{fill-rule:evenodd;clip-rule:evenodd;fill:#596273;}
	.st18{fill-rule:evenodd;clip-rule:evenodd;fill:#6DB4C2;}
	.st19{fill:#CCCCCC;}
	.st20{fill:#6DB4C2;}
	.st21{fill-rule:evenodd;clip-rule:evenodd;fill:#FAB867;}
	.st22{opacity:0.2;fill-rule:evenodd;clip-rule:evenodd;}
	.st23{fill-rule:evenodd;clip-rule:evenodd;fill:#254659;}
	.st24{fill-rule:evenodd;clip-rule:evenodd;}
	.st25{opacity:0.5;fill-rule:evenodd;clip-rule:evenodd;fill:#FFFFFF;}
	.st26{fill-rule:evenodd;clip-rule:evenodd;fill:#FFFFFF;}
	.st27{fill-rule:evenodd;clip-rule:evenodd;fill:#E6E6E6;}
	.st28{fill-rule:evenodd;clip-rule:evenodd;fill:#B3B3B3;}
	.st29{fill-rule:evenodd;clip-rule:evenodd;fill:#886734;}
	.st30{fill-rule:evenodd;clip-rule:evenodd;fill:#694F28;}
	.st31{fill-rule:evenodd;clip-rule:evenodd;fill:#BD9D6E;}
	.st32{fill-rule:evenodd;clip-rule:evenodd;fill:#F85A68;}
	.st33{fill-rule:evenodd;clip-rule:evenodd;fill:#C62229;}
	.st34{fill-rule:evenodd;clip-rule:evenodd;fill:#D0D0D0;}
	.st35{fill-rule:evenodd;clip-rule:evenodd;fill:#F0B16C;}
	.st36{fill-rule:evenodd;clip-rule:evenodd;fill:#C78B4C;}
	.st37{fill-rule:evenodd;clip-rule:evenodd;fill:#1E1E1E;}
	.st38{fill-rule:evenodd;clip-rule:evenodd;fill:#2130F4;}
	.st39{fill-rule:evenodd;clip-rule:evenodd;fill:#358FD3;}
	.st40{fill-rule:evenodd;clip-rule:evenodd;fill:#1836A0;}
	.st41{fill-rule:evenodd;clip-rule:evenodd;fill:#407DDD;}
	.st42{fill-rule:evenodd;clip-rule:evenodd;fill:#325B96;}
	.st43{fill-rule:evenodd;clip-rule:evenodd;fill:#D4B194;}
	.st44{fill-rule:evenodd;clip-rule:evenodd;fill:#FFD7B7;}
	.st45{fill-rule:evenodd;clip-rule:evenodd;fill:#2E5B78;}
	.st46{fill-rule:evenodd;clip-rule:evenodd;fill:#21445C;}
	.st47{fill-rule:evenodd;clip-rule:evenodd;fill:#FFDDB8;}
	.st48{fill-rule:evenodd;clip-rule:evenodd;fill:#E8C5A0;}
	.st49{fill-rule:evenodd;clip-rule:evenodd;fill:#F0CEAA;}
	.st50{fill-rule:evenodd;clip-rule:evenodd;fill:#7D5F54;}
	.st51{fill-rule:evenodd;clip-rule:evenodd;fill:#F7D6B2;}
	.st52{fill-rule:evenodd;clip-rule:evenodd;fill:#142C3D;}
	.st53{fill-rule:evenodd;clip-rule:evenodd;fill:#36485C;}
	.st54{fill-rule:evenodd;clip-rule:evenodd;fill:#2E93DB;}
	.st55{fill-rule:evenodd;clip-rule:evenodd;fill:#FCA71F;}
	.st56{fill-rule:evenodd;clip-rule:evenodd;fill:#4B6480;}
	.st57{fill-rule:evenodd;clip-rule:evenodd;fill:#215FF9;}
	.st58{fill:#FFFFFF;}
	.st59{fill:#2E93DB;}
	.st60{fill-rule:evenodd;clip-rule:evenodd;fill:#9A57B4;}
	.st61{fill-rule:evenodd;clip-rule:evenodd;fill:#001844;}
	.st62{fill:url(#XMLID_449_);}
	.st63{fill:url(#XMLID_450_);}
	.st64{fill:#698DC8;}
</style>
<ellipse id="XMLID_1_" class="st0" cx="529.3" cy="466.4" rx="371.4" ry="366.4"/>
<g id="XMLID_16_">
	<g id="XMLID_355_">
		<polygon id="XMLID_424_" class="st1" points="868.5,280.4 1073.3,388 918.7,673 713.9,565.4 		"/>
		<g id="XMLID_356_">
			<polygon id="XMLID_423_" class="st2" points="865.8,271.8 1070.7,379.3 916.1,664.3 711.2,556.8 			"/>
			<polygon id="XMLID_422_" class="st3" points="901.9,330 1001.4,382.2 998.7,387.2 899.2,335 			"/>
			<polygon id="XMLID_421_" class="st3" points="861.2,324.7 1028.5,412.5 1025.8,417.5 858.5,329.7 			"/>
			<polygon id="XMLID_420_" class="st3" points="856.5,333.5 1023.7,421.3 1021,426.3 853.7,338.5 			"/>
			<polygon id="XMLID_419_" class="st3" points="851.7,342.3 1019,430.1 1016.2,435.1 849,347.3 			"/>
			<polygon id="XMLID_418_" class="st3" points="846.9,351.1 1014.2,438.9 1011.5,443.9 844.2,356.1 			"/>
			<polygon id="XMLID_417_" class="st3" points="842.2,359.8 1009.4,447.6 1006.7,452.6 839.5,364.9 			"/>
			<polygon id="XMLID_416_" class="st3" points="837.4,368.6 1004.7,456.4 1002,461.4 834.7,373.6 			"/>
			<polygon id="XMLID_415_" class="st3" points="832.6,377.4 999.9,465.2 997.2,470.2 829.9,382.4 			"/>
			<polygon id="XMLID_414_" class="st3" points="827.9,386.2 995.2,474 992.4,479 825.2,391.2 			"/>
			<polygon id="XMLID_413_" class="st3" points="823.1,395 906.8,438.9 904,443.9 820.4,400 			"/>
			<g id="XMLID_407_">
				<path id="XMLID_412_" class="st4" d="M909.6,580.3c12,6.3,16.5,20.9,10.1,32.7c-6.4,11.8-21.3,16.2-33.3,10
					c-12-6.3-16.5-20.9-10.1-32.7C882.7,578.5,897.6,574,909.6,580.3z"/>
				<path id="XMLID_411_" class="st5" d="M876.4,613.2c-2-3.7-3.1-7.8-3-12l24.6,0.4L876.4,613.2z"/>
				<path id="XMLID_410_" class="st6" d="M873.4,601.2c0.1-3.7,1-7.5,2.9-11c3.7-6.8,10.3-11.2,17.4-12.4l4.3,23.8L873.4,601.2z"/>
				<path id="XMLID_409_" class="st7" d="M893.8,577.8c5.2-0.9,10.8-0.2,15.8,2.5L898,601.7L893.8,577.8z"/>
				<path id="XMLID_408_" class="st8" d="M909.6,580.3L898,601.7l23.6-6.9C919.8,588.8,915.6,583.5,909.6,580.3z"/>
			</g>
			<g id="XMLID_398_">
				<polygon id="XMLID_406_" class="st9" points="738.9,550.2 838.4,602.5 837.1,605 737.5,552.7 				"/>
				<polygon id="XMLID_405_" class="st9" points="767.3,497.8 785,507.1 756.6,559.5 738.9,550.2 				"/>
				<polygon id="XMLID_404_" class="st10" points="777.1,528.3 794.8,537.6 777.1,570.2 759.4,561 				"/>
				<polygon id="XMLID_403_" class="st11" points="791.5,550.1 809.2,559.4 797.5,581 779.8,571.7 				"/>
				<polygon id="XMLID_402_" class="st12" points="817.5,550.7 835.2,560 818,591.7 800.3,582.4 				"/>
				<polygon id="XMLID_401_" class="st13" points="833,570.5 850.7,579.8 838.4,602.5 820.7,593.2 				"/>
				<polygon id="XMLID_400_" class="st9" points="864.2,616 873.1,620.7 871.7,623.2 862.8,618.5 				"/>
				<polygon id="XMLID_399_" class="st9" points="877.2,622.8 903.8,636.8 902.4,639.3 875.9,625.3 				"/>
			</g>
			<g id="XMLID_381_">
				<polygon id="XMLID_397_" class="st14" points="922.8,481.6 930.2,485.5 926.7,492.1 919.2,488.1 				"/>
				<polygon id="XMLID_396_" class="st15" points="916.9,492.4 924.4,496.3 920.8,502.9 913.3,499 				"/>
				<polygon id="XMLID_395_" class="st16" points="911,503.2 918.5,507.2 914.9,513.7 907.4,509.8 				"/>
				<polygon id="XMLID_394_" class="st17" points="905.1,514.1 912.6,518 909,524.6 901.5,520.6 				"/>
				<polygon id="XMLID_393_" class="st18" points="899.2,524.9 906.7,528.9 903.2,535.4 895.7,531.5 				"/>
				<polygon id="XMLID_392_" class="st3" points="937.3,489.2 946.4,494 942.8,500.5 933.7,495.7 				"/>
				<polygon id="XMLID_391_" class="st3" points="931.4,500 952.3,511 948.7,517.5 927.8,506.6 				"/>
				<polygon id="XMLID_390_" class="st3" points="925.5,510.9 953.5,525.6 949.9,532.1 921.9,517.4 				"/>
				<polygon id="XMLID_389_" class="st3" points="949.7,495.7 973.1,508 969.5,514.5 946.1,502.3 				"/>
				<polygon id="XMLID_388_" class="st3" points="954.9,512.4 961.5,515.8 957.9,522.4 951.3,518.9 				"/>
				<polygon id="XMLID_387_" class="st3" points="963.8,517.1 980,525.5 976.5,532.1 960.3,523.6 				"/>
				<polygon id="XMLID_386_" class="st3" points="968.3,547.2 959.1,542.4 955.6,549 964.7,553.8 				"/>
				<polygon id="XMLID_385_" class="st3" points="955.8,540.7 932.4,528.4 928.9,535 952.3,547.3 				"/>
				<polygon id="XMLID_384_" class="st3" points="928.7,526.5 919.6,521.7 916.1,528.3 925.2,533.1 				"/>
				<polygon id="XMLID_383_" class="st3" points="938.9,545.7 932.3,542.3 928.7,548.8 935.3,552.3 				"/>
				<polygon id="XMLID_382_" class="st3" points="929.9,541 913.7,532.5 910.2,539.1 926.4,547.6 				"/>
			</g>
			<g id="XMLID_357_">
				<polygon id="XMLID_380_" class="st19" points="781,482.6 880.3,534.7 879.6,536 780.3,483.9 				"/>
				<polygon id="XMLID_379_" class="st19" points="815,421.5 781.3,483.6 780,482.9 813.6,420.8 				"/>
				<polygon id="XMLID_378_" class="st19" points="833.9,431.5 800.3,493.5 798.9,492.8 832.6,430.8 				"/>
				<polygon id="XMLID_377_" class="st19" points="852.8,441.4 819.2,503.4 817.9,502.7 851.5,440.7 				"/>
				<polygon id="XMLID_376_" class="st19" points="871.8,451.3 838.1,513.4 836.8,512.7 870.4,450.6 				"/>
				<polygon id="XMLID_375_" class="st19" points="891.5,461.7 857.1,523.3 855.7,522.6 890.1,461 				"/>
				<polygon id="XMLID_374_" class="st19" points="909.7,471.2 876,533.3 874.7,532.6 908.3,470.5 				"/>
				<polygon id="XMLID_373_" class="st19" points="788.9,468 888.2,520.1 887.5,521.4 788.2,469.3 				"/>
				<polygon id="XMLID_372_" class="st19" points="796.8,453.4 895.7,506.3 895,507.6 796.1,454.8 				"/>
				<polygon id="XMLID_371_" class="st19" points="804.7,438.9 904,491 903.3,492.3 804,440.2 				"/>
				<polygon id="XMLID_370_" class="st19" points="812.6,424.3 911.9,476.4 911.2,477.8 811.9,425.7 				"/>
				<g id="XMLID_358_">
					<polygon id="XMLID_369_" class="st20" points="824.4,449.5 779.5,482 780.8,483.8 824,452.6 825.3,488.6 825.3,489.9 
						826.6,489.6 852.6,485.2 863.3,508.9 863.9,510.2 865,509.3 898.8,482 901.8,485.7 906.4,474.4 894.3,476.6 897.3,480.3 
						864.7,506.6 854.3,483.5 853.9,482.7 853.1,482.8 827.5,487.2 826.2,450.4 826.1,448.3 					"/>
					<polygon id="XMLID_368_" class="st3" points="776.7,483.6 782.5,486.7 780.9,489.6 775.2,486.5 					"/>
					<polygon id="XMLID_367_" class="st3" points="795.7,493.6 801.4,496.6 799.9,499.5 794.1,496.5 					"/>
					<polygon id="XMLID_366_" class="st3" points="814.6,503.5 820.4,506.5 818.8,509.4 813,506.4 					"/>
					<polygon id="XMLID_365_" class="st3" points="833.5,513.5 839.3,516.5 837.7,519.4 832,516.3 					"/>
					<polygon id="XMLID_364_" class="st3" points="852.5,523.4 858.2,526.4 856.7,529.3 850.9,526.3 					"/>
					<polygon id="XMLID_363_" class="st3" points="871.4,533.3 877.2,536.4 875.6,539.2 869.8,536.2 					"/>
					<polygon id="XMLID_362_" class="st3" points="781.6,463.2 787.4,466.2 785.8,469.1 780.1,466 					"/>
					<polygon id="XMLID_361_" class="st3" points="789.5,448.6 795.3,451.6 793.7,454.5 788,451.5 					"/>
					<polygon id="XMLID_360_" class="st3" points="797.4,434.1 803.2,437.1 801.6,440 795.8,436.9 					"/>
					<polygon id="XMLID_359_" class="st3" points="804.4,421.2 810.2,424.2 808.6,427.1 802.8,424.1 					"/>
				</g>
			</g>
		</g>
	</g>
	<g id="XMLID_352_">
		<polygon id="XMLID_354_" class="st1" points="82.9,582.6 12,365.1 324.8,266.6 395.6,484.1 		"/>
		<polygon id="XMLID_353_" class="st21" points="70.9,578 0,360.4 312.8,261.9 383.6,479.4 		"/>
	</g>
	<g id="XMLID_327_">
		<path id="XMLID_341_" class="st22" d="M246.6,400.4c5.9-1.4,9.8-3.6,12.5-6.5c2,5.2,7.2,3,7.2-2.3c0-2.8-0.2-7.3-1.4-11.9
			c1.9-9.8,2.1-13.3,5.1-14.3c2.4-0.7,2.9-3.3,2.8-6.3c-0.1-3-0.2-3.3-4.2-4.6c-1.2-0.4-4.4-0.9-8.5-1.3l-3.2,11.2
			c1.9-0.1,3.6-0.1,5-0.2c0.6,2.7,0.8,6,0.5,9.4c-1.5-2.6-3.5-4.9-6.3-6.5l-1.5,5.2c3.4,2.7,3.9,8.2,3.8,16.4l0,0
			c-0.1,0.2-0.3,0.5-0.4,0.7c-2,3.4-5.8,5.9-10.3,7.4L246.6,400.4z M223.2,399.6c3.7,1.5,8.5,2.4,14.4,2c3.5-0.2,6.5-0.6,9.1-1.2
			l1-3.5c-7.8,2.7-17.6,2.6-23.7-0.1L223.2,399.6L223.2,399.6z M260.1,353.2c-6.6-0.7-15.7-1.2-23.5-0.9l-0.9,3.1
			c5.2-0.2,10.3,0.1,14.4,0.6c-4.5,0.1-9.5,0.3-14.7,0.6l-3.6,12.6c9.4,0.7,16.1,1.1,17.8,1.3c2.1,0.2,3.8,0.8,5,1.8l1.5-5.2
			c-1.3-0.7-2.8-1.3-4.4-1.7c-0.8-0.2-1.8-0.4-3.1-0.6c3-0.1,5.8-0.2,8.3-0.3L260.1,353.2z M196.8,357.8c-3.8,0-17.9-3.7-30-5.5
			l-0.8,2.9c2.6,0.4,5,0.9,7.3,1.5c-2.6-0.2-5.1-0.4-7.6-0.6l-3.4,12.1c6.6-0.3,14.6-0.6,23.1-1c1.2,9.7-7.6,24.8-15.9,28.6
			c-4,1.8-9.8,2.4-15.5,1.7l-0.8,2.8c0.7,0.1,1.4,0.2,2.1,0.2c19.7,1.7,26.5-10.7,28.7-14.7c3.9-7.1,2.9-17.1,12.8-16.9
			c10,0.1,8.9,9.8,12.6,17.1c1.5,2.8,5,10,13.8,13.6l0.8-2.8c-0.2-0.1-0.3-0.1-0.5-0.2c-8.2-3.9-16.7-19.3-15.2-29
			c8.7,0.6,16.8,1.1,23.5,1.6l3.6-12.6c-4.7,0.2-9.7,0.5-14.8,0.7c4.5-1.2,9.9-1.8,15.1-1.9l0.9-3.1c-1.2,0-2.5,0.1-3.6,0.2
			C221.3,353.3,207.3,357.7,196.8,357.8z M166.8,352.3c-2-0.3-3.9-0.5-5.8-0.7c-4.6-0.4-10.1-0.5-15.3-0.5l-1,3.5
			c6.1-0.5,14-0.5,21.2,0.6L166.8,352.3L166.8,352.3z M134,392.5c3.5,3.9,9.3,6.8,19.1,7.9l0.8-2.8c-7.8-0.9-15.6-4.1-18.7-9.4
			L134,392.5L134,392.5z M165.7,356.2l-3.4,12.1c-9.6,0.4-16.5,0.8-18.3,0.9c-1.4,0.1-2.6,0.4-3.6,0.8l1.7-6.1
			c0.8-0.2,1.8-0.3,3-0.5l-2.8-0.2l2.4-8.5C151.1,355.1,158.2,355.6,165.7,356.2z M145.8,351.1c-1.3,0-2.6,0.1-3.9,0.1l-3.3,11.8
			l3.8,0.2l2.4-8.5l-0.9,0c0.3,0,0.6-0.1,0.9-0.1L145.8,351.1L145.8,351.1z M129.4,395l8.4-29.5c1.3-0.7,2.7-1.2,4.3-1.5l0.1,0
			l-1.7,6.1c-4.8,2.1-5.5,7.8-5.6,17.2l0,0.1c0.1,0.2,0.2,0.4,0.3,0.6c0,0.1,0.1,0.2,0.1,0.2l-1.2,4.3l-0.1-0.1
			C132.8,395,131,395.6,129.4,395z M141.8,351.2c-7.9,0.3-14.6,0.9-16.4,1.5c-4,1.2-4.1,1.5-4.3,4.5c-0.2,3,0.2,5.5,2.6,6.3
			c3,1,3.2,4.6,4.8,14.5c-1.3,4.5-1.7,9-1.7,11.7c0,2.6,1.2,4.5,2.7,5.2l8.4-29.5c-3,1.5-5.1,3.9-6.7,6.5c-0.2-3.4,0.1-6.7,0.8-9.4
			c1.9,0.1,4.1,0.2,6.7,0.4L141.8,351.2z"/>
		<g id="XMLID_328_">
			<path id="XMLID_340_" class="st23" d="M120.7,347.6c25-0.2,112.8,8,126.3,11.2c13.5,3.2,14.7,19.6,14.7,26.2
				c-0.1,6.7-8.1,8.4-8-2.8c0.1-11.3-0.8-17.4-8.8-18.2c-8-0.8-115.8-7.9-123.3-8.2C114.1,355.5,115.7,347.3,120.7,347.6z"/>
			<path id="XMLID_339_" class="st23" d="M263.9,349.4c-25-0.8-113,5.2-126.5,8.1c-13.5,2.9-15.2,19.2-15.3,25.8
				c-0.1,6.7,7.9,8.6,8-2.6c0.1-11.3,1.2-17.4,9.2-18c8-0.6,116-5,123.5-5.1C270.3,357.4,268.9,349.2,263.9,349.4z"/>
			<path id="XMLID_335_" class="st24" d="M222.4,394.4c3,0.7,6.4,1,10.3,0.8c20.1-1.2,24.9-9.4,27-19.8c2.3-11.4,2.3-15.4,5.6-16.4
				c2.4-0.7,2.9-3.3,2.8-6.3c-0.1-3-0.2-3.3-4.2-4.6c-2.7-0.9-15.8-2.2-27.6-2.3l-0.9,3.1c8.3,0.1,15.7,1.2,18.1,2.7
				c6.6,3.9,5,22.3-0.2,31.4c-4.7,8.1-19.9,10.9-30,8.6L222.4,394.4z M192.1,351.3c-4.2,0-20.9-4.5-33.7-6l-0.8,3
				c9.2,0.9,18,3.3,21.3,7.8c6.3,8.5-4.3,28.9-14.2,33.3c-4.9,2.2-12.3,2.6-19.2,1.1l-0.8,2.8c1.8,0.3,3.7,0.6,5.9,0.8
				c19.7,1.7,26.5-10.7,28.7-14.7c3.9-7.1,2.9-17.1,12.8-16.9c10,0.1,8.9,9.8,12.6,17.1c1.7,3.2,6,12.1,17.8,14.8l0.8-2.8
				c-1.6-0.4-3.2-0.9-4.5-1.5c-9.7-4.7-19.8-25.3-13.3-33.6c4.5-5.8,18.2-7.7,29.9-7.5l0.9-3.1c-2.8,0-5.5,0.1-8,0.2
				C216.6,346.8,202.5,351.2,192.1,351.3z M158.3,345.3c-0.7-0.1-1.3-0.2-2-0.2c-13-1.2-32.3,0.1-35.7,1.1c-4,1.2-4.1,1.5-4.3,4.5
				c-0.2,3,0.2,5.5,2.6,6.3c3.2,1.1,3.2,5.1,5.1,16.5c1.6,9.3,5.4,17,20.6,19.7l0.8-2.8c-6.6-1.4-12.5-4.4-15.1-9.1
				c-5-9.2-6.1-27.6,0.6-31.4c3.3-1.8,15.2-2.9,26.5-1.8L158.3,345.3z"/>
			<path id="XMLID_332_" class="st25" d="M130.9,350c5.9-3.3,40.4-4.1,47.9,6c6.3,8.5-4.3,28.9-14.2,33.3c-9.6,4.3-29.1,1.6-34.3-8
				C125.3,372.2,124.3,353.8,130.9,350L130.9,350z M253.5,351.6c-5.8-3.5-40.2-5.1-48,4.8c-6.5,8.3,3.5,29,13.3,33.6
				c9.5,4.5,29,2.3,34.5-7.1C258.5,373.9,260,355.5,253.5,351.6z"/>
			<g id="XMLID_329_">
				<path id="XMLID_331_" class="st25" d="M134.3,349c10.6-2.3,38-1.8,44.6,7.1c4.4,6,0.5,17.8-5.6,25.8L134.3,349z"/>
				<path id="XMLID_330_" class="st25" d="M211,352.5l39.7,33.5c1-0.9,1.9-1.9,2.5-3.1c5.3-9.1,6.8-27.5,0.2-31.4
					C248.6,348.6,223.5,347,211,352.5z"/>
			</g>
		</g>
	</g>
	<g id="XMLID_315_">
		<path id="XMLID_326_" class="st1" d="M601.8,148.3c29.8-16.1,67.6-7.2,86.7,21.1c20.1,29.9,11.8,70.1-18.6,89.9
			c-30.4,19.8-71.3,11.6-91.4-18.3c-18.4-27.3-13-63.3,11.3-84.4l-4.6-6.9c-1.6-2.3-0.9-5.5,1.5-7l3.7-2.4c2.4-1.5,5.6-0.9,7.1,1.4
			L601.8,148.3z"/>
		<g id="XMLID_316_">
			<path id="XMLID_325_" class="st26" d="M589.2,141.5c30.4-19.8,71.3-11.6,91.4,18.3c20.1,29.9,11.8,70.1-18.6,89.9
				c-30.4,19.8-71.3,11.6-91.4-18.3C550.4,201.5,558.8,161.2,589.2,141.5z"/>
			<path id="XMLID_324_" class="st27" d="M591.4,144.8c28.5-18.6,66.9-10.9,85.8,17.2c18.9,28.1,11,65.8-17.5,84.4
				c-28.5,18.6-66.9,10.9-85.8-17.2C555.1,201.1,562.9,163.3,591.4,144.8z"/>
			<path id="XMLID_323_" class="st26" d="M578.7,133.1l3.7-2.4c2.4-1.5,5.6-0.9,7.1,1.4l17.9,26.6c1.6,2.3,0.9,5.5-1.5,7l-3.7,2.4
				c-2.4,1.5-5.6,0.9-7.1-1.4l-17.9-26.6C575.6,137.8,576.3,134.6,578.7,133.1z"/>
			<path id="XMLID_322_" class="st27" d="M580.8,134.8l2.3-1.5c1.5-1,3.5-0.6,4.5,0.9l16.8,25c1,1.5,0.6,3.5-0.9,4.5l-2.3,1.5
				c-1.5,1-3.5,0.6-4.5-0.9l-16.8-25C578.8,137.7,579.2,135.7,580.8,134.8z"/>
			<path id="XMLID_321_" class="st26" d="M596.9,153c23.9-15.6,56.2-9.1,72,14.4c15.8,23.5,9.3,55.3-14.7,70.8
				c-23.9,15.6-56.2,9.1-72-14.4C566.4,200.2,572.9,168.5,596.9,153z"/>
			<path id="XMLID_320_" class="st28" d="M599.7,157.2c21.6-14,50.6-8.2,64.9,13c14.3,21.2,8.3,49.8-13.2,63.8
				c-21.6,14-50.6,8.2-64.9-13C572.3,199.8,578.2,171.2,599.7,157.2z"/>
			<path id="XMLID_319_" class="st29" d="M603.6,162.9c18.3-11.9,43-7,55.2,11.1c12.1,18,7.1,42.3-11.2,54.2
				c-18.3,11.9-43,7-55.1-11.1C580.2,199.1,585.3,174.9,603.6,162.9z"/>
			<path id="XMLID_318_" class="st30" d="M609.7,172c13.2-8.6,31.1-5,39.8,8c8.8,13,5.1,30.6-8.1,39.2c-13.2,8.6-31.1,5-39.8-8
				C592.8,198.2,596.5,180.6,609.7,172z"/>
			<path id="XMLID_317_" class="st31" d="M636.6,162.5c7.3,2.4,13.9,7.1,18.4,13.9c10.8,16,6.3,37.6-10,48.2
				c-6.9,4.5-14.8,6.3-22.5,5.7c6.7-0.1,13.5-2,19.5-5.9c16.6-10.8,21.1-32.7,10.1-49C648.2,169.5,642.8,165.2,636.6,162.5z"/>
		</g>
	</g>
	<g id="XMLID_303_">
		<path id="XMLID_314_" class="st22" d="M151.6,625.7l-16,4.1l7.8-14.4l96.9-75.1c1.6-1.2,3.9-0.9,5.1,0.6l3.7,4.7
			c1.2,1.5,1,3.8-0.6,5L151.6,625.7z"/>
		<g id="XMLID_304_">
			<path id="XMLID_313_" class="st32" d="M147.1,622.1l-16,4.1l7.8-14.4l96.9-75.1c1.6-1.2,3.9-0.9,5.1,0.6l3.7,4.7
				c1.2,1.5,1,3.8-0.6,5L147.1,622.1z"/>
			<path id="XMLID_312_" class="st33" d="M147.1,622.1l-16,4.1l12.4-9.6l99.3-76.9l1.9,2.3c1.2,1.5,1,3.8-0.6,5L147.1,622.1z"/>
			<path id="XMLID_311_" class="st26" d="M147.1,622.1l-16,4.1l7.8-14.4l92.7-71.8c3.5,3.1,6.2,6.6,8.2,10.3L147.1,622.1z"/>
			<path id="XMLID_310_" class="st34" d="M147.1,622.1l-16,4.1l12.4-9.6l92.7-71.8c1.4,1.8,2.6,3.6,3.7,5.5L147.1,622.1z"/>
			<path id="XMLID_309_" class="st21" d="M147.1,622.1l-16,4.1l7.8-14.4l89.3-69.2c3.6,3.1,6.3,6.6,8.2,10.3L147.1,622.1z"/>
			<path id="XMLID_308_" class="st9" d="M147.1,622.1l-16,4.1l12.4-9.6l89.4-69.2c1.4,1.8,2.6,3.6,3.6,5.5L147.1,622.1z"/>
			<path id="XMLID_307_" class="st35" d="M147.1,622.1l-16,4.1l7.8-14.4c1.6,1.4,3.2,3,4.6,4.8C144.9,618.3,146.1,620.2,147.1,622.1
				z"/>
			<path id="XMLID_306_" class="st36" d="M147.1,622.1l-16,4.1l12.4-9.6C144.9,618.3,146.1,620.2,147.1,622.1z"/>
			<path id="XMLID_305_" class="st37" d="M136.4,624.8l-5.3,1.3l2.6-4.7c0.5,0.5,1,1,1.5,1.6C135.7,623.5,136.1,624.2,136.4,624.8z"
				/>
		</g>
	</g>
	<g id="XMLID_289_">
		<path id="XMLID_298_" class="st1" d="M525.7,313.7L525.7,313.7c2.1,1.4,2.6,4.1,1.2,6.1l-10,14.7c-1.4,2-4.2,2.6-6.2,1.2l0,0
			l-0.2,0.3c-1,1.4-3,1.8-4.4,0.9l-30.4-20l-37.1-24.4l-1.2-0.8c-1.5-1-1.9-2.9-0.9-4.3l0.2-0.3l0,0c-4.3-2.8-3.8-9.4-2.9-10.8
			l0.2-0.3l-5.5-3.6c-0.8-0.5-1-1.5-0.7-2.3l-1.7-1.1l-1.7-6.2l2.9-0.9c0.9-0.3,2.1-0.2,2.8,0.2l2.2,1.4c0.6-0.6,1.6-0.8,2.4-0.3
			l5.5,3.6l0.2-0.3c0.9-1.3,7-4.3,11.3-1.5l0,0l0.2-0.3c1-1.4,3-1.8,4.4-0.9l68.7,45.2c1.5,1,1.9,2.9,0.9,4.3L525.7,313.7
			L525.7,313.7z M421.1,250.4l-3.2-11.8l5.1,3.3c1.5,1,1.9,2.9,0.9,4.3L421.1,250.4z M426.1,268.9l-5.8-3.8c-0.6-0.4-0.4-1,0.5-1.3
			l3.6-1.1L426.1,268.9L426.1,268.9z M418,238.6l-20.4-13.4c-1.5-1-3.4-0.6-4.4,0.9l-0.1,0.1l-0.2-0.1c-1.2-0.8-2.8-0.5-3.6,0.7
			l-12.4,18.2c-0.8,1.2-0.5,2.7,0.7,3.5l0.2,0.1l-0.1,0.1c-1,1.4-0.6,3.4,0.9,4.4l25.5,16.8c1.5,1,3.4,0.6,4.4-0.9l12.6-18.5
			L418,238.6z"/>
		<g id="XMLID_290_">
			<path id="XMLID_297_" class="st38" d="M418.9,260.2l16,10.5c0.6,0.4,0.4,1-0.5,1.3l-6.6,2.1c-0.9,0.3-2.1,0.2-2.8-0.2l-16-10.5
				c-0.6-0.4-0.4-1,0.5-1.3l6.6-2.1C417.1,259.7,418.3,259.8,418.9,260.2z"/>
			<path id="XMLID_296_" class="st26" d="M423.5,261.3l22.1,14.6c0.9,0.6,1.1,1.7,0.5,2.6l-4.2,6.1c-0.6,0.8-1.7,1.1-2.6,0.5
				l-22.1-14.6c-0.9-0.6-1.1-1.7-0.5-2.6l4.2-6.1C421.5,261,422.7,260.8,423.5,261.3z"/>
			<path id="XMLID_295_" class="st39" d="M440.5,263.2l74,48.7c2.1,1.4,2.6,4.1,1.2,6.1l-10,14.7c-1.4,2-4.2,2.6-6.2,1.2l-74-48.7
				c-4.3-2.8-3.8-9.4-2.9-10.8l6.7-9.8C430.2,263.3,436.3,260.4,440.5,263.2z"/>
			<path id="XMLID_294_" class="st40" d="M445.1,262l68.7,45.2c1.5,1,1.9,2.9,0.9,4.3l-15.4,22.7c-1,1.4-3,1.8-4.4,0.9l-68.7-45.2
				c-1.5-1-1.9-2.9-0.9-4.4l15.4-22.7C441.7,261.5,443.7,261.1,445.1,262z"/>
			<polygon id="XMLID_293_" class="st41" points="446.3,262.8 512.7,306.5 493.7,334.4 427.4,290.7 			"/>
			<path id="XMLID_292_" class="st42" d="M386.4,223.3l25.5,16.8c1.5,1,1.9,2.9,0.9,4.3l-15.4,22.7c-1,1.4-3,1.8-4.4,0.9l-25.5-16.8
				c-1.5-1-1.9-2.9-0.9-4.4l15.4-22.7C382.9,222.8,384.9,222.4,386.4,223.3z"/>
			<path id="XMLID_291_" class="st41" d="M406.1,240.3l-24.5-16.1c-1.2-0.8-2.8-0.5-3.6,0.7l-12.4,18.2c-0.8,1.2-0.5,2.7,0.7,3.5
				l24.5,16.1c1.2,0.8,2.8,0.5,3.6-0.7l12.4-18.2C407.6,242.7,407.3,241.1,406.1,240.3z"/>
		</g>
	</g>
	<g id="XMLID_182_">
		<polygon id="XMLID_287_" class="st43" points="245.7,727.1 260.2,649.7 319.1,631.3 358.2,658.4 287.8,733.4 		"/>
		<path id="XMLID_286_" class="st43" d="M333.1,724L333.1,724c5.3-4.2,6.3-12,1.9-17.1l-42-48.4c-4.4-5.1-12.1-6.1-17.4-1.9l0,0
			c-5.3,4.2-6.2,11.9-1.9,17.1l42,48.4C320.2,727.2,327.8,728.2,333.1,724z"/>
		<path id="XMLID_285_" class="st44" d="M241.4,739.5L241.4,739.5c6.4,2.3,14.9-0.6,15.9-7.1l12.4-80.5c1-6.6-0.9-13.3-7.3-15.6l0,0
			c-6.4-2.3-13.5,0.9-15.9,7.1l-12.4,80.5C233.1,730.5,235,737.1,241.4,739.5z"/>
		<path id="XMLID_284_" class="st44" d="M319.4,620L319.4,620c-3-6-10.4-8.4-16.5-5.6l-49.1,22.4c-6.2,2.8-8.6,10.3-5.6,16.3l0,0
			c3,6,10.4,8.5,16.5,5.6l49.1-22.4C319.9,633.5,322.4,626,319.4,620z"/>
		<path id="XMLID_283_" class="st44" d="M281.9,650.8c-3.4,11-13.3,57.8,15.6,52.7c29-5.2-29.2,43.2-29.2,43.2l-25.4-40.4
			C242.9,706.3,241.3,659.1,281.9,650.8z"/>
		<polygon id="XMLID_282_" class="st44" points="242.1,708.2 291.4,746.5 272.1,779.6 218.7,746.7 		"/>
		<g id="XMLID_257_">
			<polygon id="XMLID_281_" class="st1" points="336.1,418.6 567.5,437.4 540.5,759.3 309.1,740.5 			"/>
			<polygon id="XMLID_280_" class="st26" points="328.3,410.6 559.7,429.4 532.7,751.3 301.2,732.5 			"/>
			<g id="XMLID_258_">
				<path id="XMLID_279_" class="st45" d="M402.6,520.6c-6.9-27.5-3.6-26.3-29.9-28.8c-26.1-2.5-23.3-1.5-34.3,23.6L402.6,520.6z"/>
				<path id="XMLID_278_" class="st46" d="M339.4,513c-0.3,0.8-0.6,1.6-0.9,2.4l32,2.6l2.2-26.2l0,0l-0.1,0.7
					c-1.1-0.1-2.3-0.5-3.5-1C347.5,489.6,348.8,491.4,339.4,513z"/>
				<polygon id="XMLID_277_" class="st27" points="362.2,490.8 372.7,491.7 370.5,518 364.7,517.5 360.7,509.4 				"/>
				<path id="XMLID_276_" class="st47" d="M366.7,467.8l16,1.3l-1.9,22.7c-0.6,7.7-16.7,7.2-16-1.3L366.7,467.8z"/>
				<polygon id="XMLID_275_" class="st48" points="381.3,485.2 381.5,482.3 365.6,481 364.7,491.7 				"/>
				<path id="XMLID_274_" class="st49" d="M376.9,441.5c33.8,2.7,16.4,45.5-3.7,43.9C353.1,483.7,343.1,438.7,376.9,441.5z"/>
				<path id="XMLID_273_" class="st47" d="M376.9,441.5c33.8,2.7,16.4,45.5-3.7,43.9L376.9,441.5z"/>
				<path id="XMLID_272_" class="st50" d="M386,446.6c5.3,2.7,6.9,9.8,7.8,14.6c1.3,6.9,0.3,6.2,3.2,1.3c2.9-4.9-1.3-27.6-18.8-29
					c-17.5-1.4-26.1,15.1-24.5,24.6c1.7,9.5,1.9,7.3,4,0.4C363.1,440.5,376.3,449.6,386,446.6z"/>
				<g id="XMLID_269_">
					<path id="XMLID_271_" class="st47" d="M397.3,458.3c1.2,0.4,1.5,2.9,0.6,5.6c-0.9,2.7-2.6,4.7-3.8,4.3
						c-1.2-0.4-1.5-2.9-0.6-5.6C394.5,459.9,396.1,458,397.3,458.3z"/>
					<path id="XMLID_270_" class="st51" d="M353.9,454.8c-1.3,0.2-1.9,2.6-1.5,5.5c0.4,2.9,1.7,5,3,4.9c1.3-0.2,1.9-2.6,1.5-5.5
						C356.5,456.8,355.2,454.6,353.9,454.8z"/>
				</g>
				<polygon id="XMLID_268_" class="st26" points="383.2,492.5 372.7,491.7 370.5,518 376.3,518.5 381.6,511.1 				"/>
				<g id="XMLID_263_">
					<path id="XMLID_267_" class="st52" d="M358.3,517c-1.8-1.5-3.7-2.5-5.7-2.4c-0.8-4.1,0.4-7.1,2.5-10.5c-2-0.5-5.2-0.5-7.9,0.6
						c3.8-8.9,12.8-15,19.4-16.6c-0.3,3.7-5.6,12.6-2.5,17.6c1.3,2.1,2.8,6.7,3.8,12L358.3,517z"/>
					<path id="XMLID_266_" class="st46" d="M361,517.2c-2.2-2.9-4.7-5-7-5.2c0.5-4.2,1-6.2,3.6-9.2c-3.2-0.8-6.4-0.6-9.1,0.6
						c2.5-5.1,10.3-12.7,15.4-14.4c-0.3,3.7-0.2,11.9,1.3,17.1c0.7,2.5,1.9,6.9,2.8,11.8L361,517.2z"/>
					<path id="XMLID_265_" class="st46" d="M382.7,519c2-1.2,4.1-1.8,6-1.4c1.5-3.9,0.8-7.1-0.7-10.8c2.1-0.2,5,0.3,8.2,1.9
						c-2.3-5.8-7.4-15.1-13.6-17.7c-0.3,3.7,5,12.1-0.2,15.5c-3.1,2-7,6.5-9.9,11.7L382.7,519z"/>
					<path id="XMLID_264_" class="st45" d="M380,518.8c2.7-2.5,5.5-4.2,7.8-4c0.2-4.3,0.1-6.3-2-9.7c3.2-0.3,6.5,0.6,9.1,2.2
						c-2.4-5.3-8.2-13.5-13-16.1c-0.3,3.7-1.4,11.1-4.1,16.1c-1.6,3.1-3.5,6.8-5.1,10.9L380,518.8z"/>
				</g>
				<path id="XMLID_262_" class="st46" d="M369.8,504.8l-2,12.9l5.4,0.4l0.2-13.1l6.7-12.8c-5.3-0.5-9.5-0.9-14.7-1.2L369.8,504.8z"
					/>
				<path id="XMLID_261_" class="st45" d="M373.1,518.2l0.2-13.1l6.7-12.8c-2.6-0.3-5-0.5-7.4-0.7l-2.2,26.4L373.1,518.2z"/>
				<polygon id="XMLID_260_" class="st27" points="365.1,486.3 359.6,490.8 357.9,500.5 372.5,491.7 				"/>
				<polygon id="XMLID_259_" class="st26" points="381,487.6 385.6,492.9 385.7,502.8 372.8,491.7 				"/>
			</g>
		</g>
		<polygon id="XMLID_256_" class="st53" points="330.2,613.4 521.5,628.9 520.3,642.9 329,627.4 		"/>
		<g id="XMLID_250_">
			<polygon id="XMLID_255_" class="st3" points="328.4,634.5 519.7,650 519.2,656.7 327.8,641.1 			"/>
			<polygon id="XMLID_254_" class="st3" points="327.5,645.6 518.8,661.1 518.2,667.8 326.9,652.3 			"/>
			<polygon id="XMLID_253_" class="st3" points="326.5,656.7 517.9,672.2 517.3,678.9 326,663.4 			"/>
			<polygon id="XMLID_252_" class="st3" points="325.6,667.8 516.9,683.4 516.4,690 325,674.5 			"/>
			<polygon id="XMLID_251_" class="st3" points="324.7,678.9 516,694.5 515.4,701.1 324.1,685.6 			"/>
		</g>
		<path id="XMLID_249_" class="st44" d="M326.1,715.1l39.1-35.9c14.8-13.6-4-33.5-18.3-22.2l-51.5,47.3c-11.5-1.8-27.2-1-42.1,5
			c-23.8,9.7-21.2,49.1-7.4,61.4c13.7,12.2,37.5,6.6,55.9-11.4C321.1,740.5,315.4,724.9,326.1,715.1z"/>
		<polygon id="XMLID_248_" class="st26" points="216.7,738.1 285.1,779.4 272.1,800.2 203.8,758.9 		"/>
		<g id="XMLID_223_">
			<path id="XMLID_242_" class="st43" d="M584.7,738L584.7,738c-1-6.6,3.7-13,10.4-13.8l64.3-7.2c6.7-0.8,13,3.7,14,10.3l0,0
				c1,6.6-3.7,12.8-10.4,13.8l-64.3,7.2C592,749.1,585.7,744.7,584.7,738z"/>
			<path id="XMLID_241_" class="st43" d="M598.1,761.7L598.1,761.7c-2-6.4,1.5-13.5,8.1-15.2l62.4-17.2c6.5-1.8,13.5,1.6,15.5,7.9
				l0,0c2,6.4-1.6,13.2-8.1,15.2l-62.4,17.2C607,771.4,600.1,768,598.1,761.7z"/>
			<polygon id="XMLID_240_" class="st43" points="696,815.4 706.7,737.4 651.2,705.6 610.9,715.7 653.9,808.5 			"/>
			<path id="XMLID_239_" class="st43" d="M613.9,785.7L613.9,785.7c-3.7-5.6-2.2-13.4,3.6-16.8l55.3-33.2c5.8-3.5,13.4-2.1,17.1,3.5
				l0,0c3.7,5.6,2.1,13.2-3.6,16.8L631,789.2C625.2,792.7,617.6,791.3,613.9,785.7z"/>
			<path id="XMLID_238_" class="st44" d="M696.2,828.5L696.2,828.5c-6.8,0.3-14-5.1-12.9-11.7l13.7-80.2c1.1-6.6,5.1-12.4,11.9-12.6
				l0,0c6.8-0.3,12.6,5,12.8,11.7l-13.7,80.2C706.9,822.4,703,828.2,696.2,828.5z"/>
			<path id="XMLID_237_" class="st44" d="M654.8,698.3L654.8,698.3c4.1-5.4,11.8-6.3,17.3-2.5l43.8,29.9c5.6,3.8,6.6,11.7,2.5,17
				l0,0c-4.1,5.4-11.8,6.4-17.3,2.4l-43.8-29.9C651.7,711.5,650.7,703.7,654.8,698.3z"/>
			<path id="XMLID_236_" class="st44" d="M585.3,705.7L585.3,705.7c-0.3-6.7,5.1-12.6,11.9-12.6l64.7-0.3c6.8,0,12.6,5,12.8,11.7
				l0,0c0.3,6.7-5.1,12.3-11.9,12.6l-64.7,0.3C591.3,717.4,585.6,712.3,585.3,705.7z"/>
			<path id="XMLID_235_" class="st44" d="M682.2,733.4c-0.2,11.5-2.1,57.4-28,43.7c-25.9-13.8,14.1,50,14.1,50l36.9-30.6
				C705.2,796.5,718.2,753.7,682.2,733.4z"/>
			<path id="XMLID_234_" class="st54" d="M577.5,702.4l-14.5-0.9c-2.2-0.1-2.9,1.1-0.8,2.5l11.8,7.9L577.5,702.4z"/>
			<path id="XMLID_233_" class="st55" d="M577.5,702.4l-12.5-0.8c0.2,1.3-0.3,2.5-1.3,3.4l10.3,6.9L577.5,702.4z"/>
			<polygon id="XMLID_232_" class="st56" points="573.9,699.5 780.5,767.1 776.2,781 569,713.3 			"/>
			<polygon id="XMLID_231_" class="st53" points="778.3,774.1 776.2,781 569,713.3 571.5,706.4 			"/>
			<polygon id="XMLID_230_" class="st44" points="705.4,798.5 646.5,819.8 654.3,857.2 715.4,842.3 			"/>
			<path id="XMLID_229_" class="st44" d="M694.4,796.1c19.6,16.5,4.6,53.2-12.3,60.6c-16.9,7.4-43-3.2-49.6-27.9
				c-7.3-27.9,3.9-26.2-11.5-53.7l-23.4-41.8c-3.8-6.9-2.4-15.5,4.3-19.7l0,0c6.7-4.3,15.7-2.3,20.1,4.3l33.9,60.7
				C667.5,780.3,682.1,785.8,694.4,796.1z"/>
			<polygon id="XMLID_228_" class="st26" points="720,834.7 642,853 647.7,876.7 725.8,858.5 			"/>
			<polygon id="XMLID_227_" class="st53" points="735.9,746.8 789.3,761.3 783.3,780.9 780.4,780 785.7,762.7 735.2,749.2 			"/>
			<polygon id="XMLID_226_" class="st56" points="730.1,747.5 791.6,767.6 785.5,787.2 724,767.1 			"/>
			<polygon id="XMLID_225_" class="st53" points="788.6,777.4 785.5,787.2 724,767.1 727.1,757.3 			"/>
			<polygon id="XMLID_224_" class="st57" points="724.5,748.8 729.2,750.4 724.9,764.3 719.6,762.5 			"/>
			<path id="XMLID_20_" class="st24" d="M725.8,859l7.4,27.6c0,0-32.6,17.3-77.5,29.1l-7.8-38.4L725.8,859z"/>
		</g>
		<polygon id="XMLID_222_" class="st53" points="441.7,434.6 537.1,442.4 534.8,470.4 439.3,462.6 		"/>
		<g id="XMLID_217_">
			<path id="XMLID_220_" class="st58" d="M486.2,456.2L486.2,456.2c-0.1,1.9-0.8,3.3-2,4.3c-1.2,1-2.9,1.4-5,1.2
				c-2.1-0.2-3.7-1-4.9-2.4c-1.2-1.4-1.7-3.2-1.5-5.3l0.3-3.4c0.2-2.1,0.9-3.7,2.3-5c1.4-1.2,3.1-1.8,5.1-1.6c2.1,0.2,3.7,0.9,4.8,2
				c1.1,1.2,1.6,2.7,1.4,4.6l0,0.1l-3.3-0.3c0.1-1.1-0.1-2-0.6-2.7c-0.5-0.6-1.3-1-2.5-1.1c-1-0.1-1.9,0.3-2.6,1.1
				c-0.7,0.8-1.1,1.8-1.2,3.1l-0.3,3.4c-0.1,1.3,0.1,2.4,0.7,3.3c0.6,0.9,1.4,1.4,2.5,1.5c1.1,0.1,1.9-0.1,2.5-0.7
				c0.6-0.5,0.9-1.4,1-2.5L486.2,456.2z"/>
			<path id="XMLID_218_" class="st58" d="M494.4,458.2l0.1,0.9l0.1,0l0.3-0.9l4.8-12.3l3.6,0.3l-7.3,16.7l-3.5-0.3l-4.4-17.6
				l3.6,0.3L494.4,458.2z"/>
		</g>
		<g id="XMLID_211_">
			<polygon id="XMLID_216_" class="st3" points="438.5,472.1 534,479.8 533.4,486.5 438,478.7 			"/>
			<polygon id="XMLID_215_" class="st3" points="437.6,483.2 533.1,490.9 532.5,497.6 437,489.8 			"/>
			<polygon id="XMLID_214_" class="st3" points="436.6,494.3 532.1,502 531.6,508.7 436.1,500.9 			"/>
			<polygon id="XMLID_213_" class="st3" points="435.7,505.4 531.2,513.2 530.7,519.8 435.2,512.1 			"/>
			<polygon id="XMLID_212_" class="st3" points="434.8,516.5 530.3,524.3 529.7,530.9 434.2,523.2 			"/>
		</g>
		<polygon id="XMLID_210_" class="st53" points="337,531.5 528.4,547.1 527.2,561.1 335.9,545.5 		"/>
		<g id="XMLID_204_">
			<polygon id="XMLID_209_" class="st3" points="335.3,552.6 526.6,568.1 526,574.8 334.7,559.3 			"/>
			<polygon id="XMLID_208_" class="st3" points="334.3,563.7 525.7,579.2 525.1,585.9 333.8,570.4 			"/>
			<polygon id="XMLID_207_" class="st3" points="333.4,574.8 524.7,590.4 524.2,597 332.8,581.5 			"/>
			<polygon id="XMLID_206_" class="st3" points="332.5,585.9 523.8,601.5 523.2,608.1 331.9,592.6 			"/>
			<polygon id="XMLID_205_" class="st3" points="331.5,597.1 522.9,612.6 522.3,619.2 331,603.7 			"/>
		</g>
		<g id="XMLID_183_">
			<path id="XMLID_202_" class="st59" d="M415.4,716.4c0.6-1,0.8-2.1,0.8-3.3c-0.1-1.3-0.6-2-1.6-2.2c-1-0.3-1.8-0.2-2.5,0
				c-0.7,0.3-1.1,0.9-1.4,1.7c-0.1,0.4-0.2,0.9-0.2,1.4c0,0.5,0,1.1,0,1.7c0.1,1.3,1.3,2.9,3.4,4.8c2.2,1.9,3.3,3.7,3.3,5.4
				c0.1,1.7-0.1,3.1-0.5,4.1c-0.4,1-0.9,1.7-1.6,2.2c-0.7,0.5-1.6,0.8-2.9,0.8c-4,0.3-5.7-2.4-4.9-8l2.4,0.2
				c-0.7,2.3-0.8,3.7-0.4,4.4c0.4,0.8,1.1,1.3,1.9,1.4c0.8,0.2,1.6,0.1,2.2-0.2c0.6-0.3,1.2-1,1.6-1.9c0.4-0.9,0.5-2,0.2-3.3
				c-0.2-1.3-1.3-2.8-3.3-4.6c-2-1.8-3-3.6-3.3-5.3c-0.2-1.8-0.1-3.2,0.3-4.3c0.4-1.1,0.9-1.8,1.5-2.2c0.6-0.4,1.4-0.6,2.2-0.6
				c0.9,0,1.7,0.1,2.5,0.4c0.9,0.3,1.5,0.7,1.9,1.2c0.4,0.5,0.7,1.2,0.8,2.1c0.1,1,0,2.4-0.3,4.3L415.4,716.4z"/>
			<path id="XMLID_199_" class="st59" d="M421.5,720.9c-0.6,4.3,0,7.5,1.7,9.5c0.9,1,1.8,1.6,2.7,1.6c0.9,0.1,1.8-0.3,2.5-1.1
				s1.2-1.7,1.3-2.8c0.1-1,0.1-2,0-3l2.3,0.3c-0.1,1.2-0.4,2.5-0.8,4c-0.4,1.5-1,2.6-1.9,3.4c-0.8,0.7-1.8,1.1-3,1.1
				c-1.2,0.1-2.3-0.2-3.3-1c-1-0.7-1.8-1.6-2.3-2.7c-0.6-1.1-1-2.3-1.2-3.6c-0.2-1.3-0.2-3.2,0.1-5.6c0.2-2.4,0.5-4.1,0.7-5.1
				c0.1-0.7,0.4-1.4,0.7-2.1c0.3-0.7,0.7-1.3,1.2-1.8c0.5-0.5,1-1,1.6-1.3c0.6-0.3,1.2-0.6,1.9-0.6c0.7-0.1,1.3-0.1,2,0
				c0.7,0.1,1.3,0.4,1.9,0.8c0.6,0.4,1.1,0.9,1.4,1.5c0.4,0.6,0.6,1.4,0.7,2.4c0.1,1.2,0.2,2.3,0.2,3.4c0,1.1-0.1,2.3-0.2,3.6
				L421.5,720.9z M429.9,719.8c0.1-1,0.2-1.9,0.2-2.8c0-0.9-0.1-1.7-0.3-2.3c-0.2-0.7-0.4-1.2-0.6-1.7c-0.3-0.4-0.6-0.8-0.9-0.9
				c-0.7-0.4-1.5-0.5-2.4-0.3c-0.9,0.2-1.6,0.6-2.1,1.2c-0.3,0.4-0.6,0.9-0.9,1.4c-0.3,0.5-0.5,1.1-0.6,1.6
				c-0.2,0.6-0.3,1.1-0.4,1.6c-0.1,0.5-0.2,1-0.2,1.5L429.9,719.8z"/>
			<path id="XMLID_197_" class="st59" d="M440.5,735.2c-0.9-0.2-2-0.4-3.3-0.5l-4.6-0.4c0.4-1.2,1-5.1,1.8-11.6
				c0.8-6.6,1.1-10.5,1-11.8l2.4,0.2c-0.3,1.3-0.8,4.8-1.5,10.8c-0.7,5.9-1.2,9.5-1.4,10.8l1.4,0.1c0.7,0.1,1.5,0.1,2.3,0.1
				c0.8,0,1.5,0,2.1-0.1L440.5,735.2z"/>
			<path id="XMLID_194_" class="st59" d="M444.7,722.8c-0.6,4.3,0,7.5,1.7,9.5c0.9,1,1.8,1.6,2.7,1.6c0.9,0.1,1.8-0.3,2.5-1.1
				c0.7-0.8,1.2-1.7,1.3-2.8c0.1-1,0.1-2,0-3l2.3,0.3c-0.1,1.2-0.4,2.5-0.8,4c-0.4,1.5-1,2.6-1.9,3.4c-0.8,0.7-1.8,1.1-3,1.1
				c-1.2,0.1-2.3-0.2-3.3-1c-1-0.7-1.8-1.6-2.3-2.7c-0.6-1.1-1-2.3-1.2-3.6c-0.2-1.3-0.2-3.2,0.1-5.6c0.2-2.4,0.5-4.1,0.7-5.1
				c0.1-0.7,0.4-1.4,0.7-2.1c0.3-0.7,0.7-1.3,1.2-1.8c0.5-0.5,1-1,1.6-1.3c0.6-0.3,1.2-0.6,1.9-0.6c0.7-0.1,1.3-0.1,2,0
				c0.7,0.1,1.3,0.4,1.9,0.8c0.6,0.4,1.1,0.9,1.4,1.5c0.4,0.6,0.6,1.4,0.7,2.4c0.1,1.2,0.2,2.3,0.2,3.4c0,1.1-0.1,2.3-0.2,3.6
				L444.7,722.8z M453.1,721.6c0.1-1,0.2-1.9,0.2-2.8c0-0.9-0.1-1.7-0.3-2.3c-0.2-0.7-0.4-1.2-0.6-1.7c-0.3-0.4-0.6-0.8-0.9-0.9
				c-0.7-0.4-1.5-0.5-2.4-0.3c-0.9,0.2-1.6,0.6-2.1,1.2c-0.3,0.4-0.6,0.9-0.9,1.4c-0.3,0.5-0.5,1.1-0.6,1.6
				c-0.2,0.6-0.3,1.1-0.4,1.6c-0.1,0.5-0.2,1-0.2,1.5L453.1,721.6z"/>
			<path id="XMLID_192_" class="st59" d="M466.3,721.9c0.3-0.7,0.4-1.7,0.4-2.8c0-1.1-0.2-2.1-0.6-2.8c-0.4-0.7-0.9-1.2-1.6-1.4
				c-0.6-0.2-1.3-0.2-2.1,0.1c-0.8,0.3-1.4,0.9-1.9,1.8c-0.5,0.9-0.9,1.9-1.3,3.1c-0.2,0.7-0.4,1.4-0.5,2.3c-0.1,0.9-0.2,1.9-0.3,3
				c-0.2,2.3-0.1,4.1,0.1,5.3c0.3,1.2,0.7,2.3,1.2,3.2c0.5,0.9,1.2,1.4,2,1.5c0.8,0.1,1.4-0.1,2-0.5c0.5-0.4,1-1.2,1.4-2.5
				c0.2-0.7,0.4-1.3,0.4-2c0.1-0.7,0.1-1.3,0-2l2.3,0.4c-0.2,0.6-0.4,1.3-0.6,1.9c-0.2,0.7-0.4,1.3-0.6,2c-0.4,1.5-0.9,2.5-1.5,3.2
				c-0.6,0.8-1.5,1.2-2.5,1.4c-1,0.2-2,0-2.9-0.5c-0.4-0.3-0.8-0.6-1.2-1.1c-0.4-0.4-0.7-1-1.1-1.7c-0.3-0.7-0.5-1.4-0.7-2.1
				c-0.2-0.7-0.3-1.4-0.4-2.2c-0.1-1.5-0.1-3.1,0-4.5c0.1-1.5,0.3-2.8,0.4-4c0.1-1.2,0.5-2.4,0.9-3.5c0.5-1.1,1.1-2.1,1.8-2.8
				c0.7-0.8,1.6-1.3,2.5-1.7c0.9-0.3,1.9-0.3,3,0.1c1.1,0.3,1.8,0.9,2.1,1.7c0.4,0.8,0.7,1.6,0.8,2.4c0.2,0.8,0.2,1.6,0.3,2.5
				c0,0.9,0.1,1.7,0.1,2.5L466.3,721.9z"/>
			<path id="XMLID_190_" class="st59" d="M470.7,713.6c3.1,0.5,6.1,0.8,9.2,0.7l-0.2,2.2c-1-0.3-2.2-0.5-3.6-0.6
				c-0.2,2-0.5,5.8-1,11.3c-0.3,2.8-0.4,5.1-0.5,6.8c-0.1,1.7-0.1,2.9,0,3.6l-2.4-0.2c0.4-1.4,0.8-4.9,1.3-10.4
				c0.3-2.9,0.5-5.2,0.6-7.1c0.1-1.8,0.2-3.2,0.2-4.2c-1.5-0.1-2.7-0.1-3.7,0L470.7,713.6z"/>
			<path id="XMLID_187_" class="st59" d="M482.1,725.9c-0.6,4.3,0,7.5,1.7,9.5c0.9,1,1.8,1.6,2.7,1.6c0.9,0.1,1.8-0.3,2.5-1.1
				c0.7-0.8,1.2-1.7,1.3-2.8c0.1-1,0.1-2,0-3l2.3,0.3c-0.1,1.2-0.4,2.5-0.8,4c-0.4,1.5-1,2.6-1.9,3.4c-0.8,0.7-1.8,1.1-3,1.1
				c-1.2,0.1-2.3-0.2-3.3-1c-1-0.7-1.8-1.6-2.3-2.7c-0.6-1.1-1-2.3-1.2-3.6c-0.2-1.3-0.2-3.2,0.1-5.6c0.2-2.4,0.5-4.1,0.7-5.1
				c0.1-0.7,0.4-1.4,0.7-2.1c0.3-0.7,0.7-1.3,1.2-1.8c0.5-0.5,1-1,1.6-1.3c0.6-0.3,1.2-0.6,1.9-0.6c0.7-0.1,1.3-0.1,2,0
				c0.7,0.1,1.3,0.4,1.9,0.8c0.6,0.4,1.1,0.9,1.4,1.5c0.4,0.6,0.6,1.4,0.7,2.4c0.1,1.2,0.2,2.3,0.2,3.4c0,1.1-0.1,2.3-0.2,3.6
				L482.1,725.9z M490.5,724.7c0.1-1,0.2-1.9,0.2-2.8c0-0.9-0.1-1.7-0.3-2.3c-0.2-0.7-0.4-1.2-0.6-1.7c-0.3-0.4-0.6-0.8-0.9-0.9
				c-0.7-0.4-1.5-0.5-2.4-0.3c-0.9,0.2-1.6,0.6-2.1,1.2c-0.3,0.4-0.6,0.9-0.9,1.4c-0.3,0.5-0.5,1.1-0.6,1.6
				c-0.2,0.6-0.3,1.1-0.4,1.6c-0.1,0.5-0.2,1-0.2,1.5L490.5,724.7z"/>
			<path id="XMLID_184_" class="st59" d="M498.4,716c1.6,0.2,2.7,0.4,3.4,0.7c0.7,0.3,1.4,0.8,2.2,1.5c0.8,0.7,1.4,1.7,1.9,3
				c0.5,1.3,0.7,3.4,0.8,6.3c0,2.9-0.5,5.3-1.5,7.4c-1,2.1-2.2,3.4-3.6,4c-1.3,0.6-2.9,0.9-4.6,0.7l-2.9-0.3
				c0.2-1.9,0.4-3.8,0.5-5.8c0.1-2,0.2-3.9,0.3-5.9c0.1-2,0.2-4,0.3-6c0.1-2,0.2-4,0.4-5.9L498.4,716z M497.3,717.9
				c-0.1,1.8-0.2,3.6-0.3,5.3c-0.1,1.7-0.2,3.4-0.2,5c-0.1,1.6-0.2,3.3-0.3,4.9c-0.1,1.6-0.2,3.2-0.4,4.8c0.6,0.2,1.4,0.2,2.6,0.1
				c0.8-0.1,1.5-0.3,2.3-0.8c0.7-0.4,1.4-1.1,2-1.9c0.6-0.8,1.1-1.8,1.4-3c0.4-1.2,0.6-2.5,0.6-4.1c0.1-1,0.1-1.9,0.1-2.7
				c0-0.7-0.1-1.4-0.1-1.9c-0.2-1-0.5-1.9-1-2.8c-0.5-0.8-1.2-1.6-2.2-2.2C500.8,718.1,499.3,717.8,497.3,717.9z"/>
		</g>
		<path id="XMLID_15_" class="st24" d="M203.8,759l-20.6,23.8c0,0,16,20.5,59.8,53.9c3,2.3,28.7-35.9,28.7-35.9L203.8,759z"/>
	</g>
	<g id="XMLID_157_">
		<polygon id="XMLID_181_" class="st1" points="767.8,311.8 984,395.2 864.1,696 647.9,612.6 		"/>
		<polygon id="XMLID_180_" class="st26" points="773.5,305.8 989.7,389.2 869.8,690 653.6,606.6 		"/>
		<g id="XMLID_158_">
			<path id="XMLID_179_" class="st45" d="M812.6,432.2c1.5-28.2,4.2-26.2-20.3-36c-24.3-9.8-21.8-8-39.7,12.9L812.6,432.2z"/>
			<path id="XMLID_178_" class="st46" d="M754.3,407.1c-0.5,0.7-1,1.4-1.5,2l29.9,11.5l9.7-24.5l0,0l-0.3,0.6c-1-0.4-2-1.1-3.1-2
				C768.9,386.9,769.5,389,754.3,407.1z"/>
			<polygon id="XMLID_177_" class="st27" points="782.6,392.3 792.4,396.1 782.6,420.7 777.2,418.6 775.7,409.7 			"/>
			<path id="XMLID_176_" class="st47" d="M793.6,371.5l14.9,5.7l-8.5,21.2c-2.9,7.2-18.1,2.2-14.9-5.7L793.6,371.5z"/>
			<polygon id="XMLID_175_" class="st48" points="802.5,392.3 803.5,389.6 788.6,383.9 784.7,393.8 			"/>
			<path id="XMLID_174_" class="st49" d="M811.1,349.2c31.6,12.2,2.4,48.2-16.3,41C776,382.9,779.5,337,811.1,349.2z"/>
			<path id="XMLID_173_" class="st47" d="M811.1,349.2c31.6,12.2,2.4,48.2-16.3,41L811.1,349.2z"/>
			<path id="XMLID_172_" class="st50" d="M818.2,356.7c4.3,4.1,3.8,11.3,3.2,16.1c-0.8,7-1.5,6.1,2.7,2.1c4.2-3.9,6.9-26.8-9.5-33.1
				c-16.4-6.3-29.4,7-30.6,16.6c-1.2,9.6-0.4,7.5,3.7,1.5C798.2,344.4,808.1,356.8,818.2,356.7z"/>
			<g id="XMLID_169_">
				<path id="XMLID_171_" class="st47" d="M825.7,371.1c1,0.7,0.6,3.2-1.1,5.6c-1.6,2.4-3.8,3.8-4.9,3.1c-1-0.7-0.6-3.2,1.1-5.6
					C822.5,371.8,824.7,370.4,825.7,371.1z"/>
				<path id="XMLID_170_" class="st51" d="M785.2,355.5c-1.2-0.2-2.6,2-3.1,4.8c-0.5,2.8,0.2,5.3,1.4,5.5c1.2,0.2,2.6-2,3.1-4.8
					C787.1,358.1,786.4,355.7,785.2,355.5z"/>
			</g>
			<polygon id="XMLID_168_" class="st26" points="802.2,399.9 792.4,396.1 782.6,420.7 788,422.8 795.2,417.2 			"/>
			<g id="XMLID_163_">
				<path id="XMLID_167_" class="st52" d="M771.2,416.3c-1.3-2-2.9-3.4-4.8-3.9c0.4-4.1,2.5-6.7,5.4-9.4c-1.8-1.1-4.8-1.9-7.8-1.6
					c6.2-7.4,16.6-10.7,23.4-10.4c-1.4,3.5-9,10.5-7.5,16.2c0.6,2.4,0.7,7.2,0.1,12.5L771.2,416.3z"/>
				<path id="XMLID_166_" class="st46" d="M773.7,417.3c-1.3-3.4-3-6.2-5.2-7c1.7-3.9,2.8-5.7,6.1-7.8c-2.8-1.7-6-2.4-8.9-2.1
					c3.9-4.2,13.6-9.3,19-9.5c-1.4,3.5-3.7,11.3-3.8,16.7c-0.1,2.6-0.2,7.1-0.8,12.1L773.7,417.3z"/>
				<path id="XMLID_165_" class="st46" d="M794,425.1c2.3-0.6,4.5-0.6,6.2,0.4c2.6-3.3,2.8-6.6,2.5-10.5c2.1,0.4,4.7,1.7,7.3,4.2
					c-0.6-6.2-2.7-16.5-7.9-20.8c-1.4,3.5,1.2,13-4.7,14.8c-3.6,1.1-8.6,4.2-12.9,8.4L794,425.1z"/>
				<path id="XMLID_164_" class="st45" d="M791.4,424.1c3.3-1.7,6.5-2.5,8.6-1.7c1.5-4,1.9-6,0.9-9.8c3.2,0.7,6.1,2.4,8,4.6
					c-0.8-5.8-3.9-15.3-7.7-19.1c-1.4,3.5-4.6,10.2-8.6,14.3c-2.5,2.5-5.3,5.5-8,9L791.4,424.1z"/>
			</g>
			<path id="XMLID_162_" class="st46" d="M785.8,407.9l-5.7,11.8l5,1.9l4-12.5l10.2-10.4c-4.9-2-8.8-3.5-13.8-5.3L785.8,407.9z"/>
			<path id="XMLID_161_" class="st45" d="M785.1,421.6l4-12.5l10.2-10.4c-2.4-1-4.7-1.9-6.9-2.7l-9.8,24.6L785.1,421.6z"/>
			<polygon id="XMLID_160_" class="st27" points="786.6,388.8 780.1,391.6 775.6,400.4 792.2,396 			"/>
			<polygon id="XMLID_159_" class="st26" points="801.5,394.6 804.4,400.9 801.6,410.4 792.5,396.1 			"/>
		</g>
	</g>
	<polygon id="XMLID_156_" class="st53" points="716.1,500.7 894.8,569.6 889.6,582.7 710.9,513.7 	"/>
	<g id="XMLID_150_">
		<polygon id="XMLID_155_" class="st3" points="708.2,520.3 887,589.3 884.5,595.5 705.7,526.6 		"/>
		<polygon id="XMLID_154_" class="st3" points="704.1,530.7 882.8,599.7 880.3,605.9 701.6,536.9 		"/>
		<polygon id="XMLID_153_" class="st3" points="699.9,541.1 878.7,610.1 876.2,616.3 697.5,547.3 		"/>
		<polygon id="XMLID_152_" class="st3" points="695.8,551.5 874.5,620.4 872.1,626.7 693.3,557.7 		"/>
		<polygon id="XMLID_151_" class="st3" points="691.7,561.9 870.4,630.8 867.9,637 689.2,568.1 		"/>
	</g>
	<polygon id="XMLID_149_" class="st53" points="875.1,360.9 964.3,395.3 953.9,421.5 864.7,387.1 	"/>
	<g id="XMLID_143_">
		<polygon id="XMLID_148_" class="st3" points="861.1,395.9 950.4,430.3 947.9,436.5 858.7,402.1 		"/>
		<polygon id="XMLID_147_" class="st3" points="857,406.3 946.2,440.7 943.7,446.9 854.5,412.5 		"/>
		<polygon id="XMLID_146_" class="st3" points="852.9,416.6 942.1,451.1 939.6,457.3 850.4,422.9 		"/>
		<polygon id="XMLID_145_" class="st3" points="848.7,427 937.9,461.4 935.5,467.7 846.2,433.2 		"/>
		<polygon id="XMLID_144_" class="st3" points="844.6,437.4 933.8,471.8 931.3,478 842.1,443.6 		"/>
	</g>
	<polygon id="XMLID_142_" class="st53" points="746.6,424.2 925.3,493.1 920.1,506.2 741.4,437.2 	"/>
	<g id="XMLID_136_">
		<polygon id="XMLID_141_" class="st3" points="738.7,443.9 917.5,512.8 915,519 736.2,450.1 		"/>
		<polygon id="XMLID_140_" class="st3" points="734.6,454.2 913.3,523.2 910.8,529.4 732.1,460.4 		"/>
		<polygon id="XMLID_139_" class="st3" points="730.4,464.6 909.2,533.6 906.7,539.8 728,470.8 		"/>
		<polygon id="XMLID_138_" class="st3" points="726.3,475 905,543.9 902.6,550.2 723.8,481.2 		"/>
		<polygon id="XMLID_137_" class="st3" points="722.2,485.4 900.9,554.3 898.4,560.5 719.7,491.6 		"/>
	</g>
	<g id="XMLID_131_">
		<path id="XMLID_134_" class="st58" d="M913.8,394L913.8,394c-0.7,1.8-1.8,2.9-3.3,3.5c-1.5,0.5-3.2,0.4-5.1-0.4
			c-1.9-0.8-3.2-2.1-3.8-3.8c-0.7-1.7-0.6-3.6,0.3-5.5l1.4-3.1c0.8-1.9,2.1-3.3,3.8-4c1.7-0.7,3.5-0.7,5.3,0.1c2,0.8,3.3,2,3.9,3.4
			c0.7,1.5,0.6,3.1-0.2,4.8L916,389l-3.1-1.3c0.5-1,0.6-1.9,0.3-2.7c-0.3-0.8-0.9-1.4-2-1.8c-0.9-0.4-1.9-0.3-2.8,0.2
			c-0.9,0.5-1.6,1.4-2.1,2.6l-1.4,3.2c-0.5,1.2-0.7,2.3-0.4,3.3c0.2,1,0.9,1.7,1.9,2.2c1,0.4,1.8,0.5,2.5,0.1c0.7-0.3,1.3-1,1.7-2.1
			L913.8,394z"/>
		<path id="XMLID_132_" class="st58" d="M920.9,398.4l-0.2,0.9l0.1,0l0.5-0.8l8.5-10.2l3.3,1.4l-12.3,13.6l-3.3-1.4l1.6-18.1
			l3.3,1.4L920.9,398.4z"/>
	</g>
	<g id="XMLID_31_">
		<path id="XMLID_91_" class="st1" d="M876.9,472.3l125.9,92L864.3,747.6l-115.9-84.7l100-148.3l3.9-5.2c0.3-0.3,0.4-0.7,0.3-1.1
			l3.1-4.7c0.5,0,1.1-0.2,1.4-0.7l4.1-5.4c0.5-0.6,0.5-1.5,0-2.1l2.7-3.9c0.8,0.4,1.7,0.2,2.2-0.5l4.1-5.4c0.6-0.8,0.4-1.9-0.4-2.4
			l0,0c-0.1-0.1-0.2-0.1-0.2-0.1L876.9,472.3L876.9,472.3z M867.8,485.9c0.1-0.1,0.2-0.2,0.3-0.3l0,0c0.1-0.2,0.2-0.3,0.2-0.5
			L867.8,485.9z M875,470.9l1.9,1.4l-7.3,10.8c-0.8-0.4-1.7-0.2-2.3,0.5l-0.1,0.1l0.5,0.4c0.3,0.2,0.5,0.6,0.4,1l-0.5,0.8
			c-0.4,0.2-0.8,0.2-1.2-0.1l-0.5-0.4l-1.3,1.7l0.5,0.4c0.5,0.4,0.6,1,0.2,1.5l0,0c-0.4,0.5-1.1,0.6-1.5,0.2l-0.5-0.4l-0.1,0.1
			c-0.6,0.8-0.4,1.9,0.4,2.4l0,0c0.1,0.1,0.2,0.1,0.2,0.1l-2.7,3.9c-0.1-0.1-0.2-0.3-0.4-0.4l0,0c-0.8-0.6-1.9-0.4-2.5,0.4l0,0.1
			l0.5,0.4c0.5,0.4,0.6,1,0.2,1.5l0,0c-0.4,0.5-1.1,0.6-1.5,0.2l-0.5-0.3L875,470.9L875,470.9z M748.4,662.9l-1.9-1.4l75-111.2
			l3.9-5.2c0.3-0.3,0.4-0.7,0.3-1.1l3.1-4.7c0.5,0,1.1-0.2,1.4-0.7l4.1-5.4c0.5-0.6,0.5-1.5,0-2.1l2.7-3.9c0.8,0.4,1.7,0.2,2.3-0.5
			l4.1-5.4c0.6-0.8,0.4-1.9-0.4-2.4l0,0c-0.1-0.1-0.2-0.1-0.2-0.1l2.7-3.9c0.1,0.1,0.2,0.3,0.4,0.4l0,0c0.8,0.6,1.9,0.4,2.5-0.4
			l0.1-0.2L748.4,662.9L748.4,662.9z M855.8,503.6l-3.1,4.7c0-0.5-0.3-1-0.7-1.3l0,0c-0.3-0.2-0.7-0.3-1.1-0.3l3.2-4.7
			c0,0.5,0.3,1,0.7,1.3l0,0C855,503.5,855.4,503.6,855.8,503.6L855.8,503.6z M840.9,521.5c0.1-0.1,0.2-0.2,0.3-0.3l0,0
			c0.1-0.2,0.2-0.3,0.2-0.5L840.9,521.5L840.9,521.5z M846.4,513.2l1.1-1.7c0.3,0.4,0.3,0.9,0,1.3l0,0
			C847.3,513.1,846.8,513.3,846.4,513.2L846.4,513.2z M848.8,509.6l1.2-1.8c0.4,0.4,0.5,1,0.1,1.4l0,0
			C849.9,509.7,849.3,509.8,848.8,509.6L848.8,509.6z M854.7,500.9l1.2-1.8l0.4,0.3c0.5,0.4,0.6,1,0.2,1.5l0,0
			c-0.4,0.5-1.1,0.6-1.5,0.2L854.7,500.9z M873.1,469.4l1.9,1.4l-17.8,26.5l-0.1-0.1l-1.3,1.7l0.2,0.1l-1.2,1.8l-0.3-0.2l-0.1,0.1
			c-0.3,0.3-0.4,0.7-0.3,1.1l-3.2,4.7c-0.5,0-1.1,0.2-1.4,0.7l0,0.1l0.5,0.4c0,0,0.1,0,0.1,0.1l-1.2,1.8c-0.1,0-0.1-0.1-0.2-0.1
			l-0.5-0.4l-1.3,1.7l0.5,0.4c0.1,0.1,0.2,0.2,0.3,0.3l-1.1,1.7c-0.2,0-0.3-0.1-0.4-0.2l-0.5-0.4l-0.1,0.1c-0.5,0.6-0.5,1.5,0,2.1
			l-2.7,3.9c-0.8-0.4-1.7-0.2-2.2,0.5l0,0l0.5,0.4c0.3,0.2,0.5,0.6,0.4,1l-0.6,0.8c-0.4,0.2-0.8,0.2-1.2-0.1l-0.5-0.4l-1.3,1.7
			l0.5,0.4c0.5,0.4,0.6,1,0.2,1.5l0,0c-0.4,0.5-1.1,0.6-1.5,0.2l-0.5-0.4l-0.1,0.1c-0.6,0.8-0.4,1.9,0.4,2.4l0,0
			c0.1,0.1,0.2,0.1,0.2,0.1l-2.7,3.9c-0.1-0.1-0.2-0.3-0.4-0.4l0,0c-0.8-0.6-1.9-0.4-2.5,0.4l0,0l0.5,0.4c0.5,0.4,0.6,1,0.2,1.5l0,0
			c-0.4,0.5-1.1,0.6-1.5,0.2l-0.5-0.3L873.1,469.4L873.1,469.4z M746.4,661.5l-1.9-1.4l50-74.2l3.9-5.2c0.3-0.3,0.4-0.7,0.3-1.1
			l3.1-4.7c0.5,0,1.1-0.2,1.4-0.7l4.1-5.4c0.5-0.6,0.5-1.5,0-2.1l2.7-3.9c0.8,0.4,1.7,0.2,2.3-0.5l4.1-5.4c0.6-0.8,0.4-1.9-0.4-2.4
			l0,0c-0.1-0.1-0.2-0.1-0.2-0.1l2.7-3.9c0.1,0.1,0.2,0.3,0.4,0.4l0,0c0.8,0.6,1.9,0.4,2.5-0.4l0.1-0.2L746.4,661.5L746.4,661.5z
			 M828.9,539.2l-3.1,4.7c0-0.5-0.3-1-0.7-1.3l0,0c-0.3-0.2-0.7-0.3-1.1-0.3l3.1-4.7c0,0.5,0.3,1,0.7,1.3l0,0
			C828.1,539.1,828.5,539.2,828.9,539.2L828.9,539.2z M814,557c0.1-0.1,0.3-0.2,0.4-0.3l0,0c0.1-0.2,0.2-0.3,0.2-0.5L814,557
			L814,557z M819.6,548.8l1.1-1.7c0.3,0.4,0.3,0.9,0,1.3l0,0C820.4,548.7,820,548.9,819.6,548.8L819.6,548.8z M821.9,545.2l1.2-1.8
			c0.4,0.4,0.5,1,0.1,1.4l0,0C823,545.3,822.4,545.4,821.9,545.2L821.9,545.2z M827.8,536.5l1.2-1.8l0.4,0.3c0.5,0.4,0.6,1,0.2,1.5
			l0,0c-0.4,0.5-1.1,0.6-1.5,0.2L827.8,536.5z M872,468.7l1,0.8l-42.8,63.5l-0.1-0.1l-1.3,1.7l0.2,0.1l-1.2,1.8l-0.3-0.2l-0.1,0.1
			c-0.3,0.3-0.4,0.7-0.3,1.1l-3.1,4.7c-0.5,0-1.1,0.2-1.4,0.7l0,0l0.5,0.4c0,0,0.1,0,0.1,0.1l-1.2,1.8c-0.1,0-0.1-0.1-0.2-0.1
			l-0.5-0.4l-1.3,1.7l0.5,0.4c0.1,0.1,0.2,0.2,0.2,0.3l-1.1,1.7c-0.2,0-0.3-0.1-0.4-0.2l-0.5-0.4l-0.1,0.2c-0.5,0.6-0.5,1.5,0,2.1
			l-2.7,3.9c-0.8-0.4-1.7-0.2-2.2,0.5l0.5,0.4c0.3,0.2,0.5,0.6,0.4,1L814,557c-0.4,0.2-0.8,0.2-1.2-0.1l-0.5-0.4l-1.3,1.7l0.5,0.4
			c0.5,0.4,0.6,1,0.2,1.5l0,0c-0.4,0.5-1.1,0.6-1.5,0.2l-0.5-0.4l-0.1,0.2c-0.6,0.8-0.4,1.9,0.4,2.4l0,0c0.1,0.1,0.2,0.1,0.2,0.1
			l-2.7,3.9c-0.1-0.1-0.2-0.3-0.4-0.4l0,0c-0.8-0.6-1.9-0.4-2.5,0.3l0.5,0.4c0.5,0.4,0.6,1,0.2,1.5l0,0c-0.4,0.5-1.1,0.6-1.5,0.2
			l-0.5-0.3l57-84.5l0.1,0.1l1.3-1.7l-0.2-0.1l1.2-1.8l0.3,0.2L872,468.7L872,468.7z M744.5,660.1l-1.9-1.4l25-37.1l3.9-5.2
			c0.3-0.3,0.4-0.7,0.3-1.1l3.1-4.7c0.5,0,1.1-0.2,1.4-0.7l4.1-5.4c0.5-0.6,0.5-1.5,0-2.1l2.7-3.9c0.8,0.4,1.7,0.2,2.2-0.5l4.1-5.4
			c0.6-0.8,0.4-1.9-0.4-2.4l0,0c-0.1-0.1-0.2-0.1-0.2-0.1l2.7-3.9c0.1,0.1,0.2,0.3,0.4,0.4l0,0c0.8,0.6,1.9,0.4,2.5-0.4l0.1-0.2
			L744.5,660.1L744.5,660.1z M801.9,574.9l-3.1,4.7c0-0.5-0.3-1-0.7-1.3l0,0c-0.3-0.2-0.7-0.3-1.1-0.3l3.1-4.7c0,0.5,0.3,1,0.7,1.3
			l0,0C801.2,574.8,801.6,574.9,801.9,574.9L801.9,574.9z M787.1,592.6c0.1-0.1,0.3-0.2,0.4-0.3l0,0c0.1-0.2,0.2-0.3,0.2-0.5
			L787.1,592.6L787.1,592.6z M792.7,584.4l1.1-1.7c0.3,0.4,0.3,0.9,0,1.3l0,0C793.5,584.3,793.1,584.4,792.7,584.4L792.7,584.4z
			 M795.1,580.8l1.2-1.8c0.4,0.4,0.5,1,0.1,1.4l0,0C796.1,580.9,795.5,581,795.1,580.8L795.1,580.8z M800.9,572.1l1.2-1.8l0.4,0.3
			c0.5,0.4,0.6,1,0.2,1.5l0,0c-0.4,0.5-1.1,0.6-1.5,0.2L800.9,572.1z M742.6,658.6l-1.9-1.4l7.5-11.1c0.5,0,1.1-0.2,1.4-0.7l4.1-5.4
			c0.5-0.6,0.5-1.5,0-2.1l2.7-3.9c0.8,0.4,1.7,0.2,2.3-0.5l4.1-5.4c0.6-0.8,0.4-1.9-0.4-2.4l0,0c-0.1-0.1-0.2-0.1-0.2-0.1l2.7-3.9
			c0.1,0.1,0.2,0.3,0.4,0.4l0,0c0.8,0.6,1.9,0.4,2.5-0.4l0.1-0.2L742.6,658.6L742.6,658.6z M833.5,519.6L833.5,519.6l1.4-1.7
			l-0.2-0.1l1.2-1.8l0.3,0.2l5-6.7l-0.6-0.5l1.2-1.8l0.7,0.5l1.3-1.7l-0.8-0.6l1.2-1.8l0.9,0.7l5-6.7l-1.3-0.9l1.2-1.8l1.4,1
			l1.3-1.7l-1.5-1.1l1.2-1.8l1.5,1.1l5-6.7l-1.9-1.4l1.2-1.8l1.9,1.4l-57,84.5l-0.1-0.1l-1.3,1.7l0.2,0.1l-1.2,1.8l-0.3-0.2
			l-0.1,0.2c-0.3,0.3-0.4,0.7-0.3,1.1l-3.1,4.7c-0.5,0-1,0.2-1.4,0.7l0.5,0.4c0,0,0.1,0,0.1,0.1l-1.2,1.8c-0.1,0-0.1-0.1-0.2-0.1
			l-0.5-0.4L793,582l0.5,0.4c0.1,0.1,0.2,0.2,0.2,0.3l-1.1,1.7c-0.2,0-0.3-0.1-0.4-0.2l-0.5-0.4l-0.1,0.2c-0.5,0.6-0.5,1.5,0,2.1
			l-2.7,3.9c-0.7-0.4-1.7-0.2-2.2,0.5l0.5,0.4c0.3,0.2,0.5,0.6,0.4,1l-0.6,0.8c-0.4,0.2-0.8,0.2-1.2-0.1l-0.5-0.4l-1.3,1.7l0.5,0.4
			c0.5,0.4,0.6,1,0.2,1.5l0,0c-0.4,0.5-1.1,0.6-1.5,0.2l-0.5-0.4l-0.2,0.2c-0.6,0.8-0.4,1.9,0.4,2.4l0,0c0.1,0.1,0.2,0.1,0.2,0.1
			l-2.7,3.9c-0.1-0.1-0.2-0.3-0.4-0.4l0,0c-0.8-0.6-1.8-0.4-2.4,0.3l0.5,0.4c0.5,0.4,0.6,1,0.2,1.5l0,0c-0.4,0.5-1.1,0.6-1.5,0.2
			l-0.5-0.3L833.5,519.6L833.5,519.6z M861.6,482.2l-1.9-1.4l1.2-1.8l1.9,1.4L861.6,482.2L861.6,482.2z M775,610.5l-3.1,4.7
			c0-0.5-0.3-1-0.7-1.3l0,0c-0.3-0.2-0.7-0.3-1.1-0.3l3.1-4.7c0,0.5,0.3,1,0.7,1.3l0,0C774.3,610.4,774.7,610.5,775,610.5L775,610.5
			z M760.2,628.2c0.1-0.1,0.3-0.2,0.4-0.3l0,0c0.1-0.2,0.2-0.4,0.2-0.5L760.2,628.2L760.2,628.2z M765.8,620l1.1-1.7
			c0.3,0.4,0.3,0.9,0,1.3l0,0C766.6,619.9,766.2,620,765.8,620L765.8,620z M768.2,616.4l1.2-1.8c0.4,0.4,0.5,1,0.1,1.4l0,0
			C769.2,616.5,768.6,616.6,768.2,616.4L768.2,616.4z M774,607.7l1.2-1.8l0.4,0.3c0.5,0.4,0.6,1,0.2,1.5l0,0
			c-0.4,0.5-1.1,0.6-1.5,0.2L774,607.7z M740.6,657.2l-7.1-5.2l9.1-12l-6.8-5c-0.5-0.4-0.6-1-0.2-1.5l0,0c0.4-0.5,1.1-0.6,1.5-0.2
			l6.8,5l1.3-1.7l-6.8-5c-0.5-0.4-0.6-1-0.2-1.5l0,0c0.4-0.5,1.1-0.6,1.5-0.2l6.8,5l5-6.7l-6.8-5c-0.5-0.4-0.6-1-0.2-1.5l0,0
			c0.4-0.5,1.1-0.6,1.5-0.2l6.8,5l1.3-1.7l-6.8-5c-0.5-0.4-0.6-1-0.2-1.5l0,0c0.4-0.5,1.1-0.6,1.5-0.2l6.8,5l5-6.7l-6.8-5
			c-0.5-0.4-0.6-1-0.2-1.5l0,0c0.4-0.5,1.1-0.6,1.5-0.2l6.8,5l1.3-1.7l-6.8-5c-0.5-0.4-0.6-1-0.2-1.5l0,0c0.4-0.5,1.1-0.6,1.5-0.2
			l6.8,5l5-6.7l-6.8-5c-0.5-0.4-0.6-1-0.2-1.5l0,0c0.4-0.5,1.1-0.6,1.5-0.2l6.8,5l1.3-1.7l-6.8-5c-0.5-0.4-0.6-1-0.2-1.5l0,0
			c0.4-0.5,1.1-0.6,1.5-0.2l6.8,5l5-6.7l-6.8-5c-0.5-0.4-0.6-1-0.2-1.5l0,0c0.4-0.5,1.1-0.6,1.5-0.2l6.8,5l1.3-1.7l-6.8-5
			c-0.5-0.4-0.6-1-0.2-1.5l0,0c0.4-0.5,1.1-0.6,1.5-0.2l6.8,5l5-6.7l-6.8-5c-0.5-0.4-0.6-1-0.2-1.5l0,0c0.4-0.5,1.1-0.6,1.5-0.2
			l6.8,5l1.3-1.7l-6.8-5c-0.5-0.4-0.6-1-0.2-1.5l0,0c0.4-0.5,1.1-0.6,1.5-0.2l6.8,5l5-6.7l-6.8-5c-0.5-0.4-0.6-1-0.2-1.5l0,0
			c0.4-0.5,1.1-0.6,1.5-0.2l6.8,5l1.3-1.7l-6.8-5c-0.5-0.4-0.6-1-0.2-1.5l0,0c0.4-0.5,1.1-0.6,1.5-0.2l6.8,5l5-6.7l-6.8-5
			c-0.5-0.4-0.6-1-0.2-1.5l0,0c0.4-0.5,1.1-0.6,1.5-0.2l6.8,5l1.3-1.7l-6.8-5c-0.5-0.4-0.6-1-0.2-1.5l0,0c0.4-0.5,1.1-0.6,1.5-0.2
			l6.8,5l5-6.7l-6.8-5c-0.5-0.4-0.6-1-0.2-1.5l0,0c0.4-0.5,1.1-0.6,1.5-0.2l6.8,5l1.3-1.7l-6.8-5c-0.5-0.4-0.6-1-0.2-1.5l0,0
			c0.4-0.5,1.1-0.6,1.5-0.2l6.8,5l5-6.7l-6.8-5c-0.5-0.4-0.6-1-0.2-1.5l0,0c0.4-0.5,1.1-0.6,1.5-0.2l6.8,5l1.3-1.7l-6.8-5
			c-0.5-0.4-0.6-1-0.2-1.5l0,0c0.4-0.5,1.1-0.6,1.5-0.2l6.8,5l5-6.7l-6.8-5c-0.5-0.4-0.6-1-0.2-1.5l0,0c0.4-0.5,1.1-0.6,1.5-0.2
			l6.7,4.9l-57,84.5l-0.1-0.1l-1.3,1.7l0.2,0.1l-1.2,1.8l-0.3-0.2l-0.2,0.2c-0.3,0.3-0.4,0.7-0.3,1.1l-3.1,4.7c-0.5,0-1,0.2-1.4,0.6
			l0.5,0.4c0,0,0.1,0,0.1,0.1l-1.2,1.8c-0.1,0-0.1-0.1-0.2-0.1l-0.5-0.4l-1.3,1.7l0.5,0.4c0.1,0.1,0.2,0.2,0.2,0.3l-1.1,1.7
			c-0.2,0-0.3-0.1-0.4-0.2l-0.5-0.4l-0.2,0.2c-0.5,0.6-0.5,1.5,0,2.1l-2.7,3.9c-0.7-0.4-1.6-0.2-2.2,0.4l0.5,0.4
			c0.3,0.2,0.5,0.6,0.4,1l-0.6,0.8c-0.4,0.2-0.8,0.2-1.2-0.1l-0.5-0.4l-1.3,1.7l0.5,0.4c0.5,0.4,0.6,1,0.2,1.5l0,0
			c-0.4,0.5-1.1,0.6-1.5,0.2l-0.5-0.4l-0.2,0.3c-0.6,0.8-0.4,1.9,0.4,2.4l0,0c0.1,0.1,0.2,0.1,0.2,0.1l-2.7,3.9
			c-0.1-0.1-0.2-0.3-0.4-0.4l0,0c-0.8-0.5-1.8-0.4-2.4,0.3l0.5,0.4c0.5,0.4,0.6,1,0.2,1.5l0,0c-0.4,0.5-1.1,0.6-1.5,0.2l-0.5-0.4
			l-1.3,1.7l0.5,0.4c0.5,0.4,0.6,1,0.2,1.5l0,0c-0.4,0.5-1.1,0.6-1.5,0.2l-0.5-0.4l-0.2,0.3c-0.6,0.8-0.4,1.9,0.4,2.4l0,0
			c0.3,0.2,0.7,0.3,1.1,0.3L740.6,657.2L740.6,657.2z M834.7,517.7l-6.6-4.8c-0.5-0.4-0.6-1-0.2-1.5l0,0c0.4-0.5,1.1-0.6,1.5-0.2
			l6.5,4.8L834.7,517.7L834.7,517.7z M840.6,509l-6.2-4.5c-0.5-0.4-0.6-1-0.2-1.5l0,0c0.4-0.5,1.1-0.6,1.5-0.2l6.1,4.4L840.6,509
			L840.6,509z M843,505.4l-6-4.4c-0.5-0.4-0.6-1-0.2-1.5l0,0c0.4-0.5,1.1-0.6,1.5-0.2l5.9,4.3L843,505.4L843,505.4z M848.9,496.7
			l-5.5-4c-0.5-0.4-0.6-1-0.2-1.5l0,0c0.4-0.5,1.1-0.6,1.5-0.2l5.4,4L848.9,496.7L848.9,496.7z M851.3,493.1l-5.3-3.9
			c-0.5-0.4-0.6-1-0.2-1.5l0,0c0.4-0.5,1.1-0.6,1.5-0.2l5.2,3.8L851.3,493.1L851.3,493.1z M857.2,484.4l-4.9-3.6
			c-0.5-0.4-0.6-1-0.2-1.5l0,0c0.4-0.5,1.1-0.6,1.5-0.2l4.8,3.5L857.2,484.4L857.2,484.4z M859.7,480.7l-4.7-3.4
			c-0.5-0.4-0.6-1-0.2-1.5l0,0c0.4-0.5,1.1-0.6,1.5-0.2l4.6,3.4L859.7,480.7z"/>
		<g id="XMLID_32_">
			<path id="XMLID_76_" class="st54" d="M873.4,461.3l126.5,92.5L861.4,737.2L744.8,652L836.5,516l3.9-5.2c0.3-0.3,0.4-0.7,0.3-1.1
				l3.2-4.7c0.5,0,1.1-0.2,1.4-0.7l4.1-5.4c0.5-0.6,0.5-1.5,0-2.1l2.7-3.9c0.8,0.4,1.7,0.2,2.2-0.5l4.1-5.4c0.6-0.8,0.4-1.9-0.4-2.4
				l0,0c-0.1-0.1-0.2-0.1-0.2-0.1l2.7-3.9c0.1,0.1,0.2,0.3,0.4,0.4l0,0c0.8,0.6,1.9,0.4,2.5-0.4l4.1-5.4c0.6-0.8,0.4-1.9-0.4-2.4
				l0,0c-0.3-0.2-0.7-0.3-1.1-0.3L873.4,461.3z M871.4,459.9l1.9,1.4l-7.5,11.1c-0.5,0-1.1,0.2-1.4,0.7l-4.1,5.4
				c-0.5,0.6-0.5,1.5,0,2.1l-2.7,3.9c-0.8-0.4-1.7-0.2-2.3,0.5l-4.1,5.4c-0.6,0.8-0.4,1.9,0.4,2.4l0,0c0.1,0.1,0.2,0.1,0.2,0.1
				l-2.7,3.9c-0.1-0.1-0.2-0.3-0.4-0.4l0,0c-0.8-0.6-1.9-0.4-2.5,0.4l-0.1,0.2L871.4,459.9L871.4,459.9z M744.8,652l-1.9-1.4
				l66.7-98.9l3.9-5.2c0.3-0.3,0.4-0.7,0.3-1.1l3.1-4.7c0.5,0,1.1-0.2,1.4-0.7l4.1-5.4c0.5-0.6,0.5-1.5,0-2.1l2.7-3.9
				c0.8,0.4,1.7,0.2,2.2-0.5l4.1-5.4c0.6-0.8,0.4-1.9-0.4-2.4l0,0c-0.1-0.1-0.2-0.1-0.2-0.1l2.7-3.9c0.1,0.1,0.2,0.3,0.4,0.4l0,0
				c0.8,0.6,1.9,0.4,2.5-0.4l0.1-0.2L744.8,652L744.8,652z M843.9,505l-3.2,4.7c0-0.5-0.3-1-0.7-1.3l0,0c-0.3-0.2-0.7-0.3-1.1-0.3
				l3.2-4.7c0,0.5,0.3,1,0.7,1.3l0,0C843.1,504.9,843.5,505,843.9,505z M869.5,458.5l1.9,1.4l-25,37.1l-3.9,5.2
				c-0.3,0.3-0.4,0.7-0.3,1.1l-3.2,4.7c-0.5,0-1.1,0.2-1.4,0.7l-4.1,5.4c-0.5,0.6-0.5,1.5,0,2.1l-2.7,3.9c-0.8-0.4-1.7-0.2-2.2,0.5
				l-4.1,5.4c-0.6,0.8-0.4,1.9,0.4,2.4l0,0c0.1,0.1,0.2,0.1,0.2,0.1l-2.7,3.9c-0.1-0.1-0.2-0.3-0.4-0.4l0,0
				c-0.8-0.6-1.9-0.4-2.5,0.4l-0.1,0.2L869.5,458.5L869.5,458.5z M742.9,650.5l-1.9-1.4l41.7-61.8l3.9-5.2c0.3-0.3,0.4-0.7,0.3-1.1
				l3.1-4.7c0.5,0,1.1-0.2,1.4-0.7l4.1-5.4c0.5-0.6,0.5-1.5,0-2.1l2.7-3.9c0.8,0.4,1.7,0.2,2.3-0.5l4.1-5.4c0.6-0.8,0.4-1.9-0.4-2.4
				l0,0c-0.1-0.1-0.2-0.1-0.2-0.1l2.7-3.9c0.1,0.1,0.2,0.3,0.4,0.4l0,0c0.8,0.6,1.9,0.4,2.5-0.4l0.1-0.2L742.9,650.5L742.9,650.5z
				 M817,540.7l-3.1,4.7c0-0.5-0.3-1-0.7-1.3l0,0c-0.3-0.2-0.7-0.3-1.1-0.3l3.1-4.7c0,0.5,0.3,1,0.7,1.3l0,0
				C816.2,540.6,816.6,540.7,817,540.7z M869.1,458.2l0.4,0.3l-50,74.2l-3.9,5.2c-0.3,0.3-0.4,0.7-0.3,1.1l-3.1,4.7
				c-0.5,0-1.1,0.2-1.4,0.7l-4.1,5.4c-0.5,0.6-0.5,1.5,0,2.1l-2.7,3.9c-0.8-0.4-1.7-0.2-2.3,0.5l-4.1,5.4c-0.6,0.8-0.4,1.9,0.4,2.4
				l0,0c0.1,0.1,0.2,0.1,0.2,0.1l-2.7,3.9c-0.1-0.1-0.2-0.3-0.4-0.4l0,0c-0.8-0.6-1.9-0.4-2.5,0.4l-0.1,0.2l55-81.6L869.1,458.2
				L869.1,458.2z M740.9,649.1l-1.9-1.4l16.7-24.8l3.9-5.2c0.3-0.3,0.4-0.7,0.3-1.1l3.1-4.7c0.5,0,1.1-0.2,1.4-0.7l4.1-5.4
				c0.5-0.6,0.5-1.5,0-2.1l2.7-3.9c0.8,0.4,1.7,0.2,2.2-0.5l4.1-5.4c0.6-0.8,0.4-1.9-0.4-2.4l0,0c-0.1-0.1-0.2-0.1-0.2-0.1l2.7-3.9
				c0.1,0.1,0.2,0.3,0.4,0.4l0,0c0.8,0.6,1.9,0.4,2.5-0.4l0.1-0.2L740.9,649.1L740.9,649.1z M790,576.3l-3.1,4.7
				c0-0.5-0.3-1-0.7-1.3l0,0c-0.3-0.2-0.7-0.3-1.1-0.3l3.1-4.7c0,0.5,0.3,1,0.7,1.3l0,0C789.3,576.2,789.7,576.3,790,576.3z
				 M739,647.7l-1.9-1.4l7.3-10.8c0.8,0.4,1.7,0.2,2.2-0.5l4.1-5.4c0.6-0.8,0.4-1.9-0.4-2.4l0,0c-0.1-0.1-0.2-0.1-0.2-0.1l2.7-3.9
				c0.1,0.1,0.2,0.3,0.4,0.4l0,0c0.8,0.6,1.9,0.4,2.5-0.4l0.1-0.2L739,647.7L739,647.7z M820.7,522.4l26.9-35.6l-55,81.6l-3.9,5.2
				c-0.3,0.3-0.4,0.7-0.3,1.1l-3.1,4.7c-0.5,0-1.1,0.2-1.4,0.7l-4.1,5.4c-0.5,0.6-0.5,1.5,0,2.1l-2.7,3.9c-0.8-0.4-1.7-0.2-2.2,0.5
				l-4.1,5.4c-0.6,0.8-0.4,1.9,0.4,2.4l0,0c0.1,0.1,0.2,0.1,0.2,0.1l-2.7,3.9c-0.1-0.1-0.2-0.3-0.4-0.4l0,0
				c-0.8-0.6-1.9-0.4-2.5,0.4l-0.1,0.2L820.7,522.4L820.7,522.4z M763.1,611.9l-3.1,4.7c0-0.5-0.3-1-0.7-1.3l0,0
				c-0.3-0.2-0.7-0.3-1.1-0.3l3.1-4.7c0,0.5,0.3,1,0.7,1.3l0,0C762.4,611.8,762.8,611.9,763.1,611.9z M737.1,646.3l-6.5-4.7
				l90.1-119.2l-55,81.6l-3.9,5.2c-0.3,0.3-0.4,0.7-0.3,1.1l-3.1,4.7c-0.5,0-1.1,0.2-1.4,0.7l-4.1,5.4c-0.5,0.6-0.5,1.5,0,2.1
				l-2.7,3.9c-0.8-0.4-1.7-0.2-2.3,0.5l-4.1,5.4c-0.6,0.8-0.4,1.9,0.4,2.4l0,0c0.1,0.1,0.2,0.1,0.2,0.1L737.1,646.3z"/>
			<g id="XMLID_33_">
				<g id="XMLID_73_">
					<path id="XMLID_75_" class="st60" d="M864.9,473.6l-11.6-8.5c-0.5-0.4-1.2-0.3-1.5,0.2l0,0c-0.4,0.5-0.3,1.2,0.2,1.5l11.6,8.5
						c0.5,0.4,1.2,0.3,1.5-0.2l0,0C865.5,474.6,865.4,474,864.9,473.6z"/>
					<path id="XMLID_74_" class="st60" d="M862.3,477.1l-11.6-8.5c-0.5-0.4-1.2-0.3-1.5,0.2l0,0c-0.4,0.5-0.3,1.2,0.2,1.5l11.6,8.5
						c0.5,0.4,1.2,0.3,1.5-0.2l0,0C862.9,478.1,862.8,477.4,862.3,477.1z"/>
				</g>
				<g id="XMLID_70_">
					<path id="XMLID_72_" class="st60" d="M856,485.5l-11.6-8.5c-0.5-0.4-1.2-0.3-1.5,0.2l0,0c-0.4,0.5-0.3,1.2,0.2,1.5l11.6,8.5
						c0.5,0.4,1.2,0.3,1.5-0.2l0,0C856.6,486.5,856.5,485.8,856,485.5z"/>
					<path id="XMLID_71_" class="st60" d="M853.4,488.9l-11.6-8.5c-0.5-0.4-1.2-0.3-1.5,0.2l0,0c-0.4,0.5-0.3,1.2,0.2,1.5l11.6,8.5
						c0.5,0.4,1.2,0.3,1.5-0.2l0,0C853.9,490,853.8,489.3,853.4,488.9z"/>
				</g>
				<g id="XMLID_67_">
					<path id="XMLID_69_" class="st60" d="M847,497.3l-11.6-8.5c-0.5-0.4-1.2-0.3-1.5,0.2l0,0c-0.4,0.5-0.3,1.2,0.2,1.5l11.6,8.5
						c0.5,0.4,1.2,0.3,1.5-0.2l0,0C847.6,498.4,847.5,497.7,847,497.3z"/>
					<path id="XMLID_68_" class="st60" d="M844.4,500.8l-11.6-8.5c-0.5-0.4-1.2-0.3-1.5,0.2l0,0c-0.4,0.5-0.3,1.2,0.2,1.5l11.6,8.5
						c0.5,0.4,1.2,0.3,1.5-0.2l0,0C845,501.8,844.9,501.2,844.4,500.8z"/>
				</g>
				<g id="XMLID_64_">
					<path id="XMLID_66_" class="st60" d="M838.1,509.2l-11.6-8.5c-0.5-0.4-1.2-0.3-1.5,0.2l0,0c-0.4,0.5-0.3,1.2,0.2,1.5l11.6,8.5
						c0.5,0.4,1.2,0.3,1.5-0.2l0,0C838.6,510.2,838.5,509.5,838.1,509.2z"/>
					<path id="XMLID_65_" class="st60" d="M835.4,512.7l-11.6-8.5c-0.5-0.4-1.2-0.3-1.5,0.2l0,0c-0.4,0.5-0.3,1.2,0.2,1.5l11.6,8.5
						c0.5,0.4,1.2,0.3,1.5-0.2l0,0C836,513.7,835.9,513,835.4,512.7z"/>
				</g>
				<g id="XMLID_61_">
					<path id="XMLID_63_" class="st60" d="M829.1,521.1l-11.6-8.5c-0.5-0.4-1.2-0.3-1.5,0.2l0,0c-0.4,0.5-0.3,1.2,0.2,1.5l11.6,8.5
						c0.5,0.4,1.2,0.3,1.5-0.2l0,0C829.7,522.1,829.6,521.4,829.1,521.1z"/>
					<path id="XMLID_62_" class="st60" d="M826.5,524.5l-11.6-8.5c-0.5-0.4-1.2-0.3-1.5,0.2l0,0c-0.4,0.5-0.3,1.2,0.2,1.5l11.6,8.5
						c0.5,0.4,1.2,0.3,1.5-0.2l0,0C827.1,525.6,827,524.9,826.5,524.5z"/>
				</g>
				<g id="XMLID_58_">
					<path id="XMLID_60_" class="st60" d="M820.1,532.9l-11.6-8.5c-0.5-0.4-1.2-0.3-1.5,0.2l0,0c-0.4,0.5-0.3,1.2,0.2,1.5l11.6,8.5
						c0.5,0.4,1.2,0.3,1.5-0.2l0,0C820.7,534,820.6,533.3,820.1,532.9z"/>
					<path id="XMLID_59_" class="st60" d="M817.5,536.4l-11.6-8.5c-0.5-0.4-1.2-0.3-1.5,0.2l0,0c-0.4,0.5-0.3,1.2,0.2,1.5l11.6,8.5
						c0.5,0.4,1.2,0.3,1.5-0.2l0,0C818.1,537.4,818,536.7,817.5,536.4z"/>
				</g>
				<g id="XMLID_55_">
					<path id="XMLID_57_" class="st60" d="M811.2,544.8l-11.6-8.5c-0.5-0.4-1.2-0.3-1.5,0.2l0,0c-0.4,0.5-0.3,1.2,0.2,1.5l11.6,8.5
						c0.5,0.4,1.2,0.3,1.5-0.2l0,0C811.8,545.8,811.7,545.1,811.2,544.8z"/>
					<path id="XMLID_56_" class="st60" d="M808.5,548.3l-11.6-8.5c-0.5-0.4-1.2-0.3-1.5,0.2l0,0c-0.4,0.5-0.3,1.2,0.2,1.5l11.6,8.5
						c0.5,0.4,1.2,0.3,1.5-0.2l0,0C809.1,549.3,809,548.6,808.5,548.3z"/>
				</g>
				<g id="XMLID_52_">
					<path id="XMLID_54_" class="st60" d="M802.2,556.7l-11.6-8.5c-0.5-0.4-1.2-0.3-1.5,0.2l0,0c-0.4,0.5-0.3,1.2,0.2,1.5l11.6,8.5
						c0.5,0.4,1.2,0.3,1.5-0.2l0,0C802.8,557.7,802.7,557,802.2,556.7z"/>
					<path id="XMLID_53_" class="st60" d="M799.6,560.1l-11.6-8.5c-0.5-0.4-1.2-0.3-1.5,0.2l0,0c-0.4,0.5-0.3,1.2,0.2,1.5l11.6,8.5
						c0.5,0.4,1.2,0.3,1.5-0.2l0,0C800.2,561.2,800.1,560.5,799.6,560.1z"/>
				</g>
				<g id="XMLID_49_">
					<path id="XMLID_51_" class="st60" d="M793.2,568.5l-11.6-8.5c-0.5-0.4-1.2-0.3-1.5,0.2l0,0c-0.4,0.5-0.3,1.2,0.2,1.5l11.6,8.5
						c0.5,0.4,1.2,0.3,1.5-0.2l0,0C793.8,569.6,793.7,568.9,793.2,568.5z"/>
					<path id="XMLID_50_" class="st60" d="M790.6,572l-11.6-8.5c-0.5-0.4-1.2-0.3-1.5,0.2l0,0c-0.4,0.5-0.3,1.2,0.2,1.5l11.6,8.5
						c0.5,0.4,1.2,0.3,1.5-0.2l0,0C791.2,573,791.1,572.3,790.6,572z"/>
				</g>
				<g id="XMLID_46_">
					<path id="XMLID_48_" class="st60" d="M784.3,580.4l-11.6-8.5c-0.5-0.4-1.2-0.3-1.5,0.2l0,0c-0.4,0.5-0.3,1.2,0.2,1.5l11.6,8.5
						c0.5,0.4,1.2,0.3,1.5-0.2l0,0C784.9,581.4,784.8,580.7,784.3,580.4z"/>
					<path id="XMLID_47_" class="st60" d="M781.7,583.9l-11.6-8.5c-0.5-0.4-1.2-0.3-1.5,0.2l0,0c-0.4,0.5-0.3,1.2,0.2,1.5l11.6,8.5
						c0.5,0.4,1.2,0.3,1.5-0.2l0,0C782.2,584.9,782.1,584.2,781.7,583.9z"/>
				</g>
				<g id="XMLID_43_">
					<path id="XMLID_45_" class="st60" d="M775.3,592.2l-11.6-8.5c-0.5-0.4-1.2-0.3-1.5,0.2l0,0c-0.4,0.5-0.3,1.2,0.2,1.5L774,594
						c0.5,0.4,1.2,0.3,1.5-0.2l0,0C775.9,593.3,775.8,592.6,775.3,592.2z"/>
					<path id="XMLID_44_" class="st60" d="M772.7,595.7l-11.6-8.5c-0.5-0.4-1.2-0.3-1.5,0.2l0,0c-0.4,0.5-0.3,1.2,0.2,1.5l11.6,8.5
						c0.5,0.4,1.2,0.3,1.5-0.2l0,0C773.3,596.8,773.2,596.1,772.7,595.7z"/>
				</g>
				<g id="XMLID_40_">
					<path id="XMLID_42_" class="st60" d="M766.4,604.1l-11.6-8.5c-0.5-0.4-1.2-0.3-1.5,0.2l0,0c-0.4,0.5-0.3,1.2,0.2,1.5l11.6,8.5
						c0.5,0.4,1.2,0.3,1.5-0.2l0,0C766.9,605.1,766.8,604.5,766.4,604.1z"/>
					<path id="XMLID_41_" class="st60" d="M763.7,607.6l-11.6-8.5c-0.5-0.4-1.2-0.3-1.5,0.2l0,0c-0.4,0.5-0.3,1.2,0.2,1.5l11.6,8.5
						c0.5,0.4,1.2,0.3,1.5-0.2l0,0C764.3,608.6,764.2,607.9,763.7,607.6z"/>
				</g>
				<g id="XMLID_37_">
					<path id="XMLID_39_" class="st60" d="M757.4,616l-11.6-8.5c-0.5-0.4-1.2-0.3-1.5,0.2l0,0c-0.4,0.5-0.3,1.2,0.2,1.5l11.6,8.5
						c0.5,0.4,1.2,0.3,1.5-0.2l0,0C758,617,757.9,616.3,757.4,616z"/>
					<path id="XMLID_38_" class="st60" d="M754.8,619.4l-11.6-8.5c-0.5-0.4-1.2-0.3-1.5,0.2l0,0c-0.4,0.5-0.3,1.2,0.2,1.5l11.6,8.5
						c0.5,0.4,1.2,0.3,1.5-0.2l0,0C755.4,620.5,755.3,619.8,754.8,619.4z"/>
				</g>
				<g id="XMLID_34_">
					<path id="XMLID_36_" class="st60" d="M748.4,627.8l-11.6-8.5c-0.5-0.4-1.2-0.3-1.5,0.2l0,0c-0.4,0.5-0.3,1.2,0.2,1.5l11.6,8.5
						c0.5,0.4,1.2,0.3,1.5-0.2l0,0C749,628.9,748.9,628.2,748.4,627.8z"/>
					<path id="XMLID_35_" class="st60" d="M745.8,631.3l-11.6-8.5c-0.5-0.4-1.2-0.3-1.5,0.2l0,0c-0.4,0.5-0.3,1.2,0.2,1.5l11.6,8.5
						c0.5,0.4,1.2,0.3,1.5-0.2l0,0C746.4,632.3,746.3,631.7,745.8,631.3z"/>
				</g>
			</g>
		</g>
	</g>
	<g id="XMLID_17_">
		<path id="XMLID_30_" class="st1" d="M922.9,550.7l21,36.5c4,6.9,1.5,15.8-5.5,19.7l-99.7,55.5c-7,3.9-16,1.5-20-5.5l-21-36.5
			c-4-6.9-1.5-15.8,5.5-19.7l99.7-55.5C909.9,541.3,918.9,543.8,922.9,550.7z"/>
		<g id="XMLID_18_">
			<path id="XMLID_29_" class="st26" d="M923.4,557l21,36.5c4,6.9,1.5,15.8-5.5,19.7l-99.7,55.5c-7,3.9-16,1.5-20-5.5l-21-36.5
				c-4-6.9-1.5-15.8,5.5-19.7l99.7-55.5C910.4,547.6,919.4,550,923.4,557z"/>
			<polygon id="XMLID_28_" class="st61" points="905.6,556.2 935.9,608.8 841.1,661.6 810.8,609 			"/>
			<path id="XMLID_27_" class="st28" d="M920.1,567.2l13.6,23.7c0.4,0.6,1.2,0.9,1.9,0.5l0,0c0.7-0.4,0.9-1.2,0.5-1.8l-13.6-23.7
				c-0.4-0.6-1.2-0.9-1.9-0.5l0,0C920,565.8,919.8,566.6,920.1,567.2z"/>
			<path id="XMLID_26_" class="st28" d="M803.8,621.3l23,39.9c0.6,1,1.9,1.4,2.9,0.8l0,0c1-0.6,1.4-1.8,0.8-2.8l-23-39.9
				c-0.6-1-1.9-1.4-2.9-0.8l0,0C803.6,619,803.2,620.3,803.8,621.3z"/>
			<path id="XMLID_25_" class="st26" d="M824.3,636.2c2.3,3.9,0.9,8.9-3.1,11.1c-4,2.2-9,0.8-11.3-3.1c-2.3-3.9-0.9-8.9,3.1-11.1
				C817,630.9,822.1,632.2,824.3,636.2z"/>
			<path id="XMLID_24_" class="st28" d="M822.2,637.4c1.6,2.8,0.6,6.3-2.2,7.8c-2.8,1.6-6.4,0.6-8-2.2c-1.6-2.8-0.6-6.3,2.2-7.8
				C817,633.6,820.6,634.6,822.2,637.4z"/>
			
				<linearGradient id="XMLID_449_" gradientUnits="userSpaceOnUse" x1="1129.926" y1="557.1059" x2="1153.297" y2="557.1059" gradientTransform="matrix(0.4922 0.8705 -0.8705 0.4922 795.5637 -656.4931)">
				<stop  offset="0" style="stop-color:#8552A0"/>
				<stop  offset="0.3233" style="stop-color:#6D58A5"/>
				<stop  offset="1" style="stop-color:#3069B2"/>
			</linearGradient>
			<path id="XMLID_23_" class="st62" d="M882.9,614.1c-0.1-1-0.3-2-0.6-2.8c-2.7,0-5.6,0-7.7-0.1c0.1,0,0.2,0,0.2,0
				c0.3,0,2.1,0.5,2.4,2.9c0,0,0,2.2-2.2,2.8s-3.3-1.1-3.3-1.2c-0.1-0.1-2.6-4.6-2.6-4.6s2.8,0,4.5,0c-0.6,0-1.1-0.1-1.4-0.1
				c-0.8-0.1-4.7-1-6.3-5.6c-3.5,0-6.6,0-6.6,0s7.5,13,7.7,13.3c0.2,0.3,3.6,5.3,9.7,3.4C882.8,620.3,883,615.2,882.9,614.1z"/>
			
				<linearGradient id="XMLID_450_" gradientUnits="userSpaceOnUse" x1="1128.6848" y1="557.7365" x2="1243.8318" y2="415.9073" gradientTransform="matrix(0.4922 0.8705 -0.8705 0.4922 795.5637 -656.4931)">
				<stop  offset="5.208287e-004" style="stop-color:#3BB3E7"/>
				<stop  offset="1" style="stop-color:#403F98"/>
			</linearGradient>
			<path id="XMLID_22_" class="st63" d="M873.4,605.6c-0.3,0-2.1-0.5-2.4-2.9c0,0,0-2.2,2.2-2.8c2.1-0.7,3.3,1.1,3.3,1.2
				c0.1,0.1,2.6,4.6,2.6,4.6s-2.8,0-4.5,0c0.6,0,1.1,0.1,1.4,0.1c0.8,0.1,4.7,1,6.3,5.6c3.5,0,6.6,0,6.6,0s-7.5-13-7.7-13.3
				c-0.2-0.3-3.6-5.3-9.7-3.4s-6.3,7-6.2,8.1c0.1,1,0.3,2,0.6,2.8c2.7,0,5.6,0,7.7,0.1C873.6,605.6,873.5,605.6,873.4,605.6z"/>
			<path id="XMLID_19_" class="st64" d="M872.3,611.1c0.3,0,0.8,0.1,1.4,0.1c0.4,0,0.7,0,1,0c2.1,0.1,5,0.1,7.7,0.1
				c-1.6-4.6-5.5-5.5-6.3-5.6c-0.3,0-0.8-0.1-1.4-0.1c-0.4,0-0.7,0-1,0c-2.1-0.1-5-0.1-7.7-0.1C867.6,610.1,871.5,610.9,872.3,611.1
				z"/>
		</g>
	</g>
</g>
<g id="XMLID_432_">
</g>
<g id="XMLID_434_">
</g>
<g id="XMLID_435_">
</g>
<g id="XMLID_436_">
</g>
<g id="XMLID_437_">
</g>
<g id="XMLID_438_">
</g>
<g id="XMLID_439_">
</g>
<g id="XMLID_440_">
</g>
<g id="XMLID_441_">
</g>
<g id="XMLID_442_">
</g>
<g id="XMLID_443_">
</g>
<g id="XMLID_444_">
</g>
<g id="XMLID_445_">
</g>
<g id="XMLID_446_">
</g>
<g id="XMLID_447_">
</g>
</svg>
