<?xml version="1.0" encoding="utf-8"?>
<!-- Generator: Adobe Illustrator 19.0.0, SVG Export Plug-In . SVG Version: 6.00 Build 0)  -->
<svg version="1.1" id="Layer_1" xmlns="http://www.w3.org/2000/svg" xmlns:xlink="http://www.w3.org/1999/xlink" x="0px" y="0px"
	 viewBox="0 0 589.4 491.3" style="enable-background:new 0 0 589.4 491.3;" xml:space="preserve">
<style type="text/css">
	.st0{fill:url(#XMLID_35_);}
	.st1{fill:url(#XMLID_36_);}
	.st2{fill:#698DC8;}
</style>
<linearGradient id="XMLID_35_" gradientUnits="userSpaceOnUse" x1="83.5887" y1="307.7093" x2="589.3735" y2="307.7093">
	<stop  offset="0" style="stop-color:#8552A0"/>
	<stop  offset="0.3233" style="stop-color:#6D58A5"/>
	<stop  offset="1" style="stop-color:#3069B2"/>
</linearGradient>
<path id="XMLID_6_" class="st0" d="M495.3,142.8c-21-9.3-40.6-15.3-58.9-18.7c-28.4,50.2-59.9,105-83.1,143c1.2-1.8,2.3-3.3,3.1-4.4
	c4.2-5.3,31.4-35,80.1-13.5c0,0,40.5,23.6,30.7,70.4c-9.8,46.8-54.8,49.7-57.8,49.7s-114.6-0.9-114.6-0.9s28.8-52.3,47.7-84
	c-7.1,11.2-13,19.9-17,25c-10.3,13.1-68.9,77.3-172.7,57.8c-37.4,66.1-69.3,124.1-69.3,124.1s325,0,333.5,0s138.7-9.7,167-144.9
	S518.3,153,495.3,142.8z"/>
<linearGradient id="XMLID_36_" gradientUnits="userSpaceOnUse" x1="56.0742" y1="320.3089" x2="2526.6438" y2="-2722.7473">
	<stop  offset="5.208287e-004" style="stop-color:#3BB3E7"/>
	<stop  offset="1" style="stop-color:#403F98"/>
</linearGradient>
<path id="XMLID_5_" class="st1" d="M232.9,228.7c-4.2,5.3-31.4,35-80.1,13.5c0,0-40.5-23.6-30.7-70.4c9.8-46.8,54.8-49.7,57.8-49.7
	c3,0,114.6,0.9,114.6,0.9s-28.8,52.3-47.7,84c7.1-11.2,13-19.9,17-25c10.3-13.1,68.9-77.3,172.7-57.8C473.9,57.9,505.8,0,505.8,0
	s-325,0-333.5,0c-8.6,0-138.7,9.7-167,144.9C-23,280.2,71.1,338.3,94,348.5c21,9.3,40.6,15.3,58.9,18.7c28.4-50.2,59.9-105,83.1-143
	C234.7,226.1,233.7,227.6,232.9,228.7z"/>
<path id="XMLID_2_" class="st2" d="M325.6,309.4c4-5.1,9.9-13.8,17-25c4.2-7.1,8-13.2,10.8-17.4c23.2-37.9,54.7-92.8,83.1-143
	c-103.8-19.5-162.4,44.7-172.7,57.8c-4,5.1-9.9,13.8-17,25c-4.2,7.1-8,13.2-10.8,17.4c-23.2,37.9-54.7,92.8-83.1,143
	C256.7,386.7,315.3,322.5,325.6,309.4z"/>
<g id="XMLID_12_">
</g>
<g id="XMLID_14_">
</g>
<g id="XMLID_19_">
</g>
<g id="XMLID_20_">
</g>
<g id="XMLID_21_">
</g>
<g id="XMLID_22_">
</g>
<g id="XMLID_23_">
</g>
<g id="XMLID_24_">
</g>
<g id="XMLID_26_">
</g>
<g id="XMLID_28_">
</g>
<g id="XMLID_29_">
</g>
<g id="XMLID_30_">
</g>
<g id="XMLID_31_">
</g>
<g id="XMLID_32_">
</g>
<g id="XMLID_33_">
</g>
</svg>
