<?xml version="1.0" encoding="utf-8"?>
<!-- Generator: Adobe Illustrator 19.0.0, SVG Export Plug-In . SVG Version: 6.00 Build 0)  -->
<svg version="1.1" id="Layer_1" xmlns="http://www.w3.org/2000/svg" xmlns:xlink="http://www.w3.org/1999/xlink" x="0px" y="0px"
	 viewBox="-185 213.8 588.4 134.2" style="enable-background:new -185 213.8 588.4 134.2;" xml:space="preserve">
<style type="text/css">
	.st0{fill:#FFFFFF;}
	.st1{fill:#4E4098;}
	.st2{fill:#29ABE2;}
	.st3{fill:#7084C1;}
</style>
<g id="XMLID_2_">
	<g id="XMLID_9_">
		<rect id="XMLID_19_" x="269.8" y="225.1" class="st0" width="16.8" height="90.7"/>
		<path id="XMLID_16_" class="st0" d="M386.5,225.1v26.7c-5.7-4-12.7-6.4-20.2-6.4c-19.4,0-35.2,15.7-35.2,35.2s15.7,35.2,35.2,35.2
			c7.5,0,14.4-2.4,20.2-6.4v6.4h16.8v-90.7H386.5z M367,299.6c-10.8,0-19.6-8.5-19.6-18.9c0-10.4,8.8-18.9,19.6-18.9
			s19.6,8.5,19.6,18.9C386.5,291.1,377.7,299.6,367,299.6z"/>
		<path id="XMLID_15_" class="st0" d="M331.2,250.4h-14c-4.3,0-8.3,2.3-10.5,6L291,283.1l15.8,26.7c2.2,3.7,6.2,6,10.5,6h14
			L312,283.1L331.2,250.4z"/>
		<path id="XMLID_12_" class="st0" d="M168.8,245.5c-19.4,0-35.2,15.7-35.2,35.2s15.7,35.2,35.2,35.2c19.4,0,35.2-15.7,35.2-35.2
			S188.2,245.5,168.8,245.5z M169.4,299.6c-10.8,0-19.6-8.5-19.6-18.9c0-10.4,8.8-18.9,19.6-18.9s19.6,8.4,19.6,18.8
			C189,291.1,180.2,299.6,169.4,299.6z"/>
		<path id="XMLID_11_" class="st0" d="M228.7,250.7v-5.2h-16.8v70.3h16.8V276c2.1-8.2,9.8-14.3,18.9-14.3c2.7,0,5.2,0.5,7.5,1.5
			l6.5-14.5c-4.5-2.1-9.4-3.2-14.6-3.2C240.3,245.5,234.1,247.4,228.7,250.7z"/>
		<path id="XMLID_10_" class="st0" d="M121.9,246.6c-3.8,0-7.2,2.3-8.5,5.9l-17.3,45.4l-10.5-27.6l9-23.7H82.9
			c-3.8,0-7.2,2.3-8.5,5.9l-17.3,45.4l-17.3-45.4c-1.3-3.5-4.7-5.9-8.5-5.9H19.6l26.3,69.2h22.4l8.3-21.8l8.3,21.8h22.4l26.3-69.2
			C133.6,246.6,121.9,246.6,121.9,246.6z"/>
	</g>
	<g id="XMLID_3_">
		<path id="XMLID_8_" class="st1" d="M-49.7,252.8c-5.7-2.5-11.1-4.2-16.1-5.1c-7.7,13.7-16.4,28.7-22.7,39.1
			c0.3-0.5,0.6-0.9,0.8-1.2c1.1-1.5,8.6-9.6,21.9-3.7c0,0,11.1,6.5,8.4,19.2c-2.7,12.8-15,13.6-15.8,13.6s-31.3-0.2-31.3-0.2
			s7.9-14.3,13-22.9c-1.9,3.1-3.5,5.4-4.6,6.8c-2.8,3.6-18.8,21.1-47.2,15.8c-10.2,18.1-18.9,33.9-18.9,33.9s88.8,0,91.1,0
			s37.9-2.7,45.6-39.6S-43.4,255.6-49.7,252.8z"/>
		<path id="XMLID_7_" class="st2" d="M-121.4,276.3c-1.1,1.5-8.6,9.6-21.9,3.7c0,0-11.1-6.5-8.4-19.2c2.7-12.8,15-13.6,15.8-13.6
			s31.3,0.2,31.3,0.2s-7.9,14.3-13,22.9c1.9-3.1,3.5-5.4,4.6-6.8c2.8-3.6,18.8-21.1,47.2-15.8c10.2-18.1,19-33.9,19-33.9
			s-88.8,0-91.2,0c-2.3,0-37.9,2.7-45.6,39.6c-7.7,36.9,18,52.8,24.3,55.6c5.7,2.5,11.1,4.2,16.1,5.1c7.7-13.7,16.4-28.7,22.7-39.1
			C-120.9,275.6-121.2,276-121.4,276.3z"/>
		<path id="XMLID_4_" class="st3" d="M-96.1,298.3c1.1-1.4,2.7-3.8,4.6-6.8c1.2-1.9,2.2-3.6,2.9-4.7c6.3-10.4,14.9-25.3,22.7-39.1
			c-28.2-5.3-44.2,12.2-47.1,15.8c-1.1,1.4-2.7,3.8-4.6,6.8c-1.2,1.9-2.2,3.6-2.9,4.7c-6.3,10.4-14.9,25.3-22.7,39.1
			C-114.9,319.4-98.9,301.9-96.1,298.3z"/>
	</g>
</g>
<g id="XMLID_32_">
</g>
<g id="XMLID_33_">
</g>
<g id="XMLID_34_">
</g>
<g id="XMLID_35_">
</g>
<g id="XMLID_36_">
</g>
<g id="XMLID_37_">
</g>
</svg>
